%!PS-Adobe-3.0 EPSF-3.0
%%Creator: PlantUML v8027      
%%Title: noTitle
%%BoundingBox: 0 0 866 837
%%ColorUsage: Color
%%Origin: 0 0
%%EndComments

gsave
0 837 translate
1 -1 scale
/simplerect {
newpath moveto 1 index 0 rlineto
0 exch rlineto
neg 0 rlineto
} def
/rquadto {
3 index 3 index 4 2 roll rcurveto
} def
/P$j {
-0.25 1.25 rlineto
-0.5625 -0.5625 -1.1875 -0.8438 rquadto
-0.625 -0.2813 -1.3594 -0.2813 rquadto
-1 0 -1.7578 0.4844 rquadto
-0.7578 0.4844 -1.3203 1.4688 rquadto
-0.3438 0.625 -0.5313 1.3359 rquadto
-0.1875 0.7109 -0.1875 1.4297 rquadto
0 1.1875 0.6172 1.8125 rquadto
0.6172 0.625 1.8047 0.625 rquadto
0.8125 0 1.5625 -0.2578 rquadto
0.75 -0.2578 1.4531 -0.7734 rquadto
-0.2656 1.3906 rlineto
-0.7031 0.2969 -1.4141 0.4531 rquadto
-0.7109 0.1563 -1.4297 0.1563 rquadto
-1.6875 0 -2.6328 -0.9141 rquadto
-0.9453 -0.9141 -0.9453 -2.5391 rquadto
0 -1.0469 0.3594 -2.0547 rquadto
0.3594 -1.0078 1.0469 -1.8359 rquadto
0.7031 -0.8906 1.625 -1.3125 rquadto
0.9219 -0.4219 2.1406 -0.4219 rquadto
0.75 0 1.4219 0.2109 rquadto
0.6719 0.2109 1.25 0.6172 rquadto
closepath
} def
/P$a {
-0.1719 0.9063 rlineto
-1.0313 0 rlineto
-0.5781 0 -0.8438 0.2266 rquadto
-0.2656 0.2266 -0.4063 0.8516 rquadto
-0.1094 0.5781 rlineto
1.7813 0 rlineto
-0.1719 0.8438 rlineto
-1.7656 0 rlineto
-1.1094 5.7188 rlineto
-1.0938 0 rlineto
1.125 -5.7188 rlineto
-1.0313 0 rlineto
0.1563 -0.8438 rlineto
1.0313 0 rlineto
0.0781 -0.4531 rlineto
0.2188 -1.1719 0.7813 -1.6406 rquadto
0.5625 -0.4688 1.7656 -0.4688 rquadto
1.0156 0 rlineto
closepath
} def
/P$10 {
-0.5781 0.2969 -1.2188 0.4453 rquadto
-0.6406 0.1484 -1.3438 0.1484 rquadto
-2.5 0 -3.8203 -1.6484 rquadto
-1.3203 -1.6484 -1.3203 -4.7734 rquadto
0 -3.125 1.3203 -4.7813 rquadto
1.3203 -1.6563 3.8203 -1.6563 rquadto
0.7031 0 1.3516 0.1563 rquadto
0.6484 0.1563 1.2109 0.4531 rquadto
0 2.7188 rlineto
-0.625 -0.5781 -1.2188 -0.8516 rquadto
-0.5938 -0.2734 -1.2188 -0.2734 rquadto
-1.3438 0 -2.0313 1.0703 rquadto
-0.6875 1.0703 -0.6875 3.1641 rquadto
0 2.0938 0.6875 3.1641 rquadto
0.6875 1.0703 2.0313 1.0703 rquadto
0.625 0 1.2188 -0.2734 rquadto
0.5938 -0.2734 1.2188 -0.8516 rquadto
0 2.7188 rlineto
closepath
} def
/P$1e {
0 1.25 rlineto
-0.6094 -0.5625 -1.2813 -0.8359 rquadto
-0.6719 -0.2734 -1.4375 -0.2734 rquadto
-1.5 0 -2.2969 0.9219 rquadto
-0.7969 0.9219 -0.7969 2.6563 rquadto
0 1.7188 0.7969 2.6406 rquadto
0.7969 0.9219 2.2969 0.9219 rquadto
0.7656 0 1.4375 -0.2813 rquadto
0.6719 -0.2813 1.2813 -0.8281 rquadto
0 1.2344 rlineto
-0.625 0.4219 -1.3203 0.6328 rquadto
-0.6953 0.2109 -1.4609 0.2109 rquadto
-2 0 -3.1406 -1.2188 rquadto
-1.1406 -1.2188 -1.1406 -3.3125 rquadto
0 -2.1094 1.1406 -3.3281 rquadto
1.1406 -1.2188 3.1406 -1.2188 rquadto
0.7813 0 1.4766 0.2109 rquadto
0.6953 0.2109 1.3047 0.6172 rquadto
closepath
} def
/P$1t {
0 3.2969 rlineto
1.4844 0 rlineto
0.8281 0 1.2813 -0.4297 rquadto
0.4531 -0.4297 0.4531 -1.2266 rquadto
0 -0.7813 -0.4531 -1.2109 rquadto
-0.4531 -0.4297 -1.2813 -0.4297 rquadto
-1.4844 0 rlineto
closepath
} def
/P$23 {
3.0313 0 rlineto
1.3594 0 2.0859 0.5625 rquadto
0.7266 0.5625 0.7266 1.5938 rquadto
0 0.8125 -0.375 1.2891 rquadto
-0.375 0.4766 -1.0938 0.5859 rquadto
0.875 0.1875 1.3594 0.7813 rquadto
0.4844 0.5938 0.4844 1.4844 rquadto
0 1.1719 -0.7969 1.8125 rquadto
-0.7969 0.6406 -2.2813 0.6406 rquadto
-3.1406 0 rlineto
0 -8.75 rlineto
closepath
} def
/P$q {
0.7813 -3.9531 rlineto
1.0781 0 rlineto
-0.7656 3.9219 rlineto
-0.0625 0.2813 -0.0859 0.4844 rquadto
-0.0234 0.2031 -0.0234 0.3438 rquadto
0 0.5 0.3047 0.7734 rquadto
0.3047 0.2734 0.8516 0.2734 rquadto
0.875 0 1.5078 -0.5859 rquadto
0.6328 -0.5859 0.8203 -1.5859 rquadto
0.7188 -3.625 rlineto
1.0781 0 rlineto
-1.2656 6.5625 rlineto
-1.0781 0 rlineto
0.2188 -1.0313 rlineto
-0.4531 0.5781 -1.0859 0.8906 rquadto
-0.6328 0.3125 -1.3359 0.3125 rquadto
-0.875 0 -1.3516 -0.4766 rquadto
-0.4766 -0.4766 -0.4766 -1.3203 rquadto
0 -0.1719 0.0313 -0.4375 rquadto
0.0313 -0.2656 0.0781 -0.5469 rquadto
closepath
} def
/P$3 {
1.0781 0 rlineto
-0.2656 1.375 rlineto
-1.0781 0 rlineto
0.2656 -1.375 rlineto
closepath
} def
/P$27 {
0 6.8125 rlineto
1.4375 0 rlineto
1.8125 0 2.6484 -0.8203 rquadto
0.8359 -0.8203 0.8359 -2.6016 rquadto
0 -1.75 -0.8359 -2.5703 rquadto
-0.8359 -0.8203 -2.6484 -0.8203 rquadto
-1.4375 0 rlineto
closepath
} def
/P$5 {
-0.7656 3.9688 rlineto
-1.0938 0 rlineto
0.7813 -3.9219 rlineto
0.0469 -0.2813 0.0781 -0.4922 rquadto
0.0313 -0.2109 0.0313 -0.3203 rquadto
0 -0.5 -0.3125 -0.7734 rquadto
-0.3125 -0.2734 -0.875 -0.2734 rquadto
-0.8594 0 -1.4844 0.5781 rquadto
-0.625 0.5781 -0.8281 1.5625 rquadto
-0.7188 3.6406 rlineto
-1.0781 0 rlineto
1.2656 -6.5625 rlineto
1.0781 0 rlineto
-0.2031 1.0313 rlineto
0.4375 -0.5625 1.0703 -0.875 rquadto
0.6328 -0.3125 1.3359 -0.3125 rquadto
0.875 0 1.3516 0.4688 rquadto
0.4766 0.4688 0.4766 1.3125 rquadto
0 0.2188 -0.0313 0.4531 rquadto
-0.0313 0.2344 -0.0781 0.5156 rquadto
closepath
} def
/P$2m {
0 1.0938 0.4531 1.7109 rquadto
0.4531 0.6172 1.2344 0.6172 rquadto
0.7813 0 1.2344 -0.6172 rquadto
0.4531 -0.6172 0.4531 -1.7109 rquadto
0 -1.0938 -0.4531 -1.7109 rquadto
-0.4531 -0.6172 -1.2344 -0.6172 rquadto
-0.7813 0 -1.2344 0.6172 rquadto
-0.4531 0.6172 -0.4531 1.7109 rquadto
closepath
} def
/P$1c {
1.0781 0 rlineto
0 1.375 rlineto
-1.0781 0 rlineto
0 -1.375 rlineto
closepath
} def
/P$1p {
7.3906 0 rlineto
0 1 rlineto
-3.0938 0 rlineto
0 7.75 rlineto
-1.1875 0 rlineto
0 -7.75 rlineto
-3.1094 0 rlineto
0 -1 rlineto
closepath
} def
/P$2b {
2.4531 0 rlineto
1.3438 0 2.0313 0.6094 rquadto
0.6875 0.6094 0.6875 1.7813 rquadto
0 1.1875 -0.6875 1.7969 rquadto
-0.6875 0.6094 -2.0313 0.6094 rquadto
-1.3594 0 rlineto
0 3.2188 rlineto
-1.0938 0 rlineto
0 -8.0156 rlineto
closepath
} def
/P$2j {
0.3594 0.125 0.6875 0.5078 rquadto
0.3281 0.3828 0.6563 1.0703 rquadto
1.1094 2.1875 rlineto
-1.1719 0 rlineto
-1.0156 -2.0625 rlineto
-0.4063 -0.7969 -0.7813 -1.0625 rquadto
-0.375 -0.2656 -1.0156 -0.2656 rquadto
-1.1719 0 rlineto
0 3.3906 rlineto
-1.0938 0 rlineto
0 -8.0156 rlineto
2.4531 0 rlineto
1.375 0 2.0469 0.5703 rquadto
0.6719 0.5703 0.6719 1.7422 rquadto
0 0.75 -0.3516 1.25 rquadto
-0.3516 0.5 -1.0234 0.6875 rquadto
closepath
} def
/P$o {
2.7344 0 rlineto
1.1875 0 1.8203 0.5547 rquadto
0.6328 0.5547 0.6328 1.6328 rquadto
0 1.4375 -0.9297 2.2422 rquadto
-0.9297 0.8047 -2.6016 0.8047 rquadto
-1.4844 0 rlineto
-0.6875 3.5156 rlineto
-1.1875 0 rlineto
1.7031 -8.75 rlineto
closepath
} def
/P$21 {
0 3.2031 rlineto
1.9063 0 rlineto
0.9531 0 1.4141 -0.3984 rquadto
0.4609 -0.3984 0.4609 -1.2109 rquadto
0 -0.8281 -0.4609 -1.2109 rquadto
-0.4609 -0.3828 -1.4141 -0.3828 rquadto
-1.9063 0 rlineto
closepath
} def
/P$1h {
0 -3.9688 rlineto
1.0781 0 rlineto
0 3.9375 rlineto
0 0.9219 0.3672 1.3906 rquadto
0.3672 0.4688 1.0859 0.4688 rquadto
0.875 0 1.3828 -0.5547 rquadto
0.5078 -0.5547 0.5078 -1.5234 rquadto
0 -3.7188 rlineto
1.0781 0 rlineto
0 6.5625 rlineto
-1.0781 0 rlineto
0 -1.0156 rlineto
-0.3906 0.6094 -0.9063 0.8984 rquadto
-0.5156 0.2891 -1.2031 0.2891 rquadto
-1.1406 0 -1.7266 -0.7031 rquadto
-0.5859 -0.7031 -0.5859 -2.0625 rquadto
closepath
} def
/P$2a {
0 3.0156 rlineto
1.3594 0 rlineto
0.75 0 1.1641 -0.3984 rquadto
0.4141 -0.3984 0.4141 -1.1172 rquadto
0 -0.7188 -0.4141 -1.1094 rquadto
-0.4141 -0.3906 -1.1641 -0.3906 rquadto
-1.3594 0 rlineto
closepath
} def
/P$2f {
0 0.9219 rlineto
-0.4063 -0.2344 -0.8281 -0.3516 rquadto
-0.4219 -0.1172 -0.8594 -0.1172 rquadto
-0.9531 0 -1.4844 0.6094 rquadto
-0.5313 0.6094 -0.5313 1.7188 rquadto
0 1.0938 0.5313 1.7031 rquadto
0.5313 0.6094 1.4844 0.6094 rquadto
0.4375 0 0.8594 -0.1094 rquadto
0.4219 -0.1094 0.8281 -0.3438 rquadto
0 0.9063 rlineto
-0.4063 0.2031 -0.8516 0.2969 rquadto
-0.4453 0.0938 -0.9453 0.0938 rquadto
-1.3594 0 -2.1563 -0.8516 rquadto
-0.7969 -0.8516 -0.7969 -2.3047 rquadto
0 -1.4688 0.8047 -2.3125 rquadto
0.8047 -0.8438 2.2109 -0.8438 rquadto
0.4688 0 0.8984 0.0938 rquadto
0.4297 0.0938 0.8359 0.2813 rquadto
closepath
} def
/P$7 {
0.0313 -0.0938 0.0391 -0.1875 rquadto
0.0078 -0.0938 0.0078 -0.2031 rquadto
0 -0.7031 -0.4219 -1.125 rquadto
-0.4219 -0.4219 -1.1406 -0.4219 rquadto
-0.7969 0 -1.4141 0.5078 rquadto
-0.6172 0.5078 -0.9297 1.4453 rquadto
3.8594 -0.0156 rlineto
closepath
} def
/P$2n {
-0.7188 1.2344 -1.0625 2.4453 rquadto
-0.3438 1.2109 -0.3438 2.4453 rquadto
0 1.2344 0.3516 2.4531 rquadto
0.3516 1.2188 1.0547 2.4531 rquadto
-0.8594 0 rlineto
-0.7969 -1.2656 -1.1953 -2.4844 rquadto
-0.3984 -1.2188 -0.3984 -2.4219 rquadto
0 -1.2031 0.3906 -2.4141 rquadto
0.3906 -1.2109 1.2031 -2.4766 rquadto
0.8594 0 rlineto
closepath
} def
/P$20 {
0 -1.1875 -0.4922 -1.8594 rquadto
-0.4922 -0.6719 -1.3359 -0.6719 rquadto
-0.8594 0 -1.3516 0.6719 rquadto
-0.4922 0.6719 -0.4922 1.8594 rquadto
0 1.1875 0.4922 1.8672 rquadto
0.4922 0.6797 1.3516 0.6797 rquadto
0.8438 0 1.3359 -0.6797 rquadto
0.4922 -0.6797 0.4922 -1.8672 rquadto
closepath
} def
/P$g {
7.4063 0 rlineto
-0.1875 1 rlineto
-3.125 0 rlineto
-1.5 7.75 rlineto
-1.1875 0 rlineto
1.5 -7.75 rlineto
-3.0938 0 rlineto
0.1875 -1 rlineto
closepath
} def
/P$24 {
0 0.9063 rlineto
-1.0313 0 rlineto
-0.5781 0 -0.8047 0.2344 rquadto
-0.2266 0.2344 -0.2266 0.8438 rquadto
0 0.5781 rlineto
1.7813 0 rlineto
0 0.8438 rlineto
-1.7813 0 rlineto
0 5.7188 rlineto
-1.0781 0 rlineto
0 -5.7188 rlineto
-1.0313 0 rlineto
0 -0.8438 rlineto
1.0313 0 rlineto
0 -0.4531 rlineto
0 -1.0938 0.5078 -1.6016 rquadto
0.5078 -0.5078 1.6172 -0.5078 rquadto
1.0156 0 rlineto
closepath
} def
/P$9 {
-0.1563 -0.0938 -0.3672 -0.1406 rquadto
-0.2109 -0.0469 -0.4453 -0.0469 rquadto
-0.875 0 -1.5156 0.6563 rquadto
-0.6406 0.6563 -0.8594 1.75 rquadto
-0.6563 3.3438 rlineto
-1.0781 0 rlineto
1.2813 -6.5625 rlineto
1.0781 0 rlineto
-0.2031 1.0156 rlineto
0.4219 -0.5625 1.0234 -0.8672 rquadto
0.6016 -0.3047 1.2734 -0.3047 rquadto
0.1719 0 0.3438 0.0156 rquadto
0.1719 0.0156 0.3438 0.0625 rquadto
-0.2188 1.0781 rlineto
closepath
} def
/P$18 {
0.375 0.1406 0.7344 0.5625 rquadto
0.3594 0.4219 0.7344 1.1563 rquadto
1.2031 2.3906 rlineto
-1.2813 0 rlineto
-1.1094 -2.25 rlineto
-0.4375 -0.875 -0.8438 -1.1641 rquadto
-0.4063 -0.2891 -1.1094 -0.2891 rquadto
-1.2969 0 rlineto
0 3.7031 rlineto
-1.1875 0 rlineto
0 -8.75 rlineto
2.6719 0 rlineto
1.5 0 2.2422 0.625 rquadto
0.7422 0.625 0.7422 1.8906 rquadto
0 0.8281 -0.3828 1.375 rquadto
-0.3828 0.5469 -1.1172 0.75 rquadto
closepath
} def
/P$1r {
0 -1.1719 -0.4844 -1.8125 rquadto
-0.4844 -0.6406 -1.3594 -0.6406 rquadto
-0.8594 0 -1.3438 0.6406 rquadto
-0.4844 0.6406 -0.4844 1.8125 rquadto
0 1.1719 0.4844 1.8125 rquadto
0.4844 0.6406 1.3438 0.6406 rquadto
0.875 0 1.3594 -0.6406 rquadto
0.4844 -0.6406 0.4844 -1.8125 rquadto
closepath
} def
/P$17 {
-0.0156 -0.875 -0.5 -1.4063 rquadto
-0.4844 -0.5313 -1.2813 -0.5313 rquadto
-0.9063 0 -1.4453 0.5156 rquadto
-0.5391 0.5156 -0.6172 1.4375 rquadto
3.8438 -0.0156 rlineto
closepath
} def
/P$1w {
5.125 0 rlineto
0 0.9844 rlineto
-4.0469 4.7188 rlineto
4.0469 0 rlineto
0 0.8594 rlineto
-5.2656 0 rlineto
0 -0.9844 rlineto
4.0625 -4.7188 rlineto
-3.9219 0 rlineto
0 -0.8594 rlineto
closepath
} def
/P$13 {
1.4063 0 2.2109 0.9141 rquadto
0.8047 0.9141 0.8047 2.5234 rquadto
0 1.6094 -0.8047 2.5313 rquadto
-0.8047 0.9219 -2.2109 0.9219 rquadto
-1.4063 0 -2.2109 -0.9219 rquadto
-0.8047 -0.9219 -0.8047 -2.5313 rquadto
0 -1.6094 0.8047 -2.5234 rquadto
0.8047 -0.9141 2.2109 -0.9141 rquadto
closepath
} def
/P$2v {
-0.9844 0 -1.4844 0.9766 rquadto
-0.5 0.9766 -0.5 2.9297 rquadto
0 1.9531 0.5 2.9297 rquadto
0.5 0.9766 1.4844 0.9766 rquadto
1 0 1.5 -0.9766 rquadto
0.5 -0.9766 0.5 -2.9297 rquadto
0 -1.9531 -0.5 -2.9297 rquadto
-0.5 -0.9766 -1.5 -0.9766 rquadto
closepath
} def
/P$f {
0.2188 -1.1719 rlineto
2.0625 -1.5938 rlineto
-1.4531 -1.5625 rlineto
0.2031 -1.0469 rlineto
2.2656 2.4531 rlineto
-0.0781 0.4688 rlineto
-3.2188 2.4531 rlineto
closepath
} def
/P$1k {
0 -3.5625 rlineto
1.0781 0 rlineto
0 9.125 rlineto
-1.0781 0 rlineto
0 -0.9844 rlineto
-0.3438 0.5781 -0.8594 0.8672 rquadto
-0.5156 0.2891 -1.25 0.2891 rquadto
-1.1875 0 -1.9375 -0.9531 rquadto
-0.75 -0.9531 -0.75 -2.5 rquadto
0 -1.5469 0.75 -2.4922 rquadto
0.75 -0.9453 1.9375 -0.9453 rquadto
0.7344 0 1.25 0.2813 rquadto
0.5156 0.2813 0.8594 0.875 rquadto
closepath
} def
/P$26 {
0.4063 -0.7344 0.9688 -1.0781 rquadto
0.5625 -0.3438 1.3281 -0.3438 rquadto
1.0313 0 1.5859 0.7188 rquadto
0.5547 0.7188 0.5547 2.0313 rquadto
0 3.9688 rlineto
-1.0781 0 rlineto
0 -3.9219 rlineto
0 -0.9531 -0.3359 -1.4063 rquadto
-0.3359 -0.4531 -1.0234 -0.4531 rquadto
-0.8438 0 -1.3281 0.5547 rquadto
-0.4844 0.5547 -0.4844 1.5234 rquadto
0 3.7031 rlineto
-1.0781 0 rlineto
0 -3.9219 rlineto
0 -0.9531 -0.3359 -1.4063 rquadto
-0.3359 -0.4531 -1.0391 -0.4531 rquadto
-0.8281 0 -1.3125 0.5547 rquadto
-0.4844 0.5547 -0.4844 1.5234 rquadto
0 3.7031 rlineto
-1.0781 0 rlineto
0 -6.5625 rlineto
1.0781 0 rlineto
0 1.0156 rlineto
0.375 -0.5938 0.8906 -0.8828 rquadto
0.5156 -0.2891 1.2188 -0.2891 rquadto
0.7188 0 1.2188 0.3594 rquadto
0.5 0.3594 0.7344 1.0625 rquadto
closepath
} def
/P$2t {
0 0.5625 rlineto
-5.375 0 rlineto
0.0781 1.2188 0.7266 1.8438 rquadto
0.6484 0.625 1.8047 0.625 rquadto
0.6719 0 1.3047 -0.1641 rquadto
0.6328 -0.1641 1.2578 -0.4922 rquadto
0 1.1094 rlineto
-0.625 0.2656 -1.2891 0.4063 rquadto
-0.6641 0.1406 -1.3359 0.1406 rquadto
-1.7031 0 -2.6953 -0.9922 rquadto
-0.9922 -0.9922 -0.9922 -2.6797 rquadto
0 -1.75 0.9453 -2.7734 rquadto
0.9453 -1.0234 2.5391 -1.0234 rquadto
1.4375 0 2.2734 0.9219 rquadto
0.8359 0.9219 0.8359 2.5156 rquadto
closepath
} def
/P$y {
0 -0.8594 -0.375 -1.3125 rquadto
-0.375 -0.4531 -1.0781 -0.4531 rquadto
-0.4844 0 -0.9219 0.2422 rquadto
-0.4375 0.2422 -0.7656 0.7109 rquadto
-0.3438 0.4688 -0.5391 1.125 rquadto
-0.1953 0.6563 -0.1953 1.2969 rquadto
0 0.8125 0.375 1.2578 rquadto
0.375 0.4453 1.0625 0.4453 rquadto
0.5156 0 0.9531 -0.2422 rquadto
0.4375 -0.2422 0.7344 -0.6953 rquadto
0.3438 -0.4844 0.5469 -1.1328 rquadto
0.2031 -0.6484 0.2031 -1.2422 rquadto
closepath
} def
/P$11 {
1.1875 0 rlineto
1.8438 7.3906 rlineto
1.8281 -7.3906 rlineto
1.3281 0 rlineto
1.8438 7.3906 rlineto
1.8281 -7.3906 rlineto
1.2031 0 rlineto
-2.1875 8.75 rlineto
-1.5 0 rlineto
-1.8438 -7.5938 rlineto
-1.8594 7.5938 rlineto
-1.4844 0 rlineto
-2.1875 -8.75 rlineto
closepath
} def
/P$1m {
-1.2969 0 -1.8047 0.2969 rquadto
-0.5078 0.2969 -0.5078 1.0156 rquadto
0 0.5781 0.3828 0.9141 rquadto
0.3828 0.3359 1.0234 0.3359 rquadto
0.9063 0 1.4453 -0.6328 rquadto
0.5391 -0.6328 0.5391 -1.6953 rquadto
0 -0.2344 rlineto
-1.0781 0 rlineto
closepath
} def
/P$12 {
-0.8594 0 -1.3672 0.6797 rquadto
-0.5078 0.6797 -0.5078 1.8516 rquadto
0 1.1875 0.5 1.8594 rquadto
0.5 0.6719 1.375 0.6719 rquadto
0.8594 0 1.3672 -0.6797 rquadto
0.5078 -0.6797 0.5078 -1.8516 rquadto
0 -1.1563 -0.5078 -1.8438 rquadto
-0.5078 -0.6875 -1.3672 -0.6875 rquadto
closepath
} def
/P$z {
0.4375 -0.5781 1.0234 -0.8672 rquadto
0.5859 -0.2891 1.3203 -0.2891 rquadto
1 0 1.5547 0.6563 rquadto
0.5547 0.6563 0.5547 1.8438 rquadto
0 0.9844 -0.3438 1.8594 rquadto
-0.3438 0.875 -1 1.5781 rquadto
-0.4219 0.4688 -0.9688 0.7109 rquadto
-0.5469 0.2422 -1.1563 0.2422 rquadto
-0.6875 0 -1.1641 -0.2891 rquadto
-0.4766 -0.2891 -0.7109 -0.8672 rquadto
-0.6719 3.4844 rlineto
-1.0781 0 rlineto
1.7656 -9.0625 rlineto
1.0781 0 rlineto
-0.2031 1 rlineto
closepath
} def
/P$b {
-0.7344 3.75 rlineto
-1.0781 0 rlineto
0.1875 -1 rlineto
-0.4688 0.5938 -1.0781 0.8828 rquadto
-0.6094 0.2891 -1.3438 0.2891 rquadto
-0.8438 0 -1.375 -0.5156 rquadto
-0.5313 -0.5156 -0.5313 -1.3125 rquadto
0 -1.1563 0.9141 -1.8203 rquadto
0.9141 -0.6641 2.5234 -0.6641 rquadto
1.5 0 rlineto
0.0625 -0.2969 rlineto
0.0156 -0.0469 0.0156 -0.1016 rquadto
0 -0.0547 0 -0.1641 rquadto
0 -0.5313 -0.4219 -0.8203 rquadto
-0.4219 -0.2891 -1.1875 -0.2891 rquadto
-0.5313 0 -1.0859 0.1406 rquadto
-0.5547 0.1406 -1.1328 0.4063 rquadto
0.1875 -1 rlineto
0.6094 -0.2344 1.1875 -0.3438 rquadto
0.5781 -0.1094 1.125 -0.1094 rquadto
1.1563 0 1.7656 0.5 rquadto
0.6094 0.5 0.6094 1.4688 rquadto
0 0.1875 -0.0313 0.4531 rquadto
-0.0313 0.2656 -0.0781 0.5469 rquadto
closepath
} def
/P$d {
-0.2188 1.0625 rlineto
-0.3906 -0.2813 -0.8281 -0.4219 rquadto
-0.4375 -0.1406 -0.9063 -0.1406 rquadto
-0.5156 0 -0.9766 0.1875 rquadto
-0.4609 0.1875 -0.7891 0.5156 rquadto
-0.5 0.5156 -0.7734 1.1953 rquadto
-0.2734 0.6797 -0.2734 1.4141 rquadto
0 0.8906 0.4453 1.3203 rquadto
0.4453 0.4297 1.3359 0.4297 rquadto
0.4531 0 0.9531 -0.1328 rquadto
0.5 -0.1328 1.0469 -0.3984 rquadto
-0.2031 1.0625 rlineto
-0.4688 0.1875 -0.9688 0.2891 rquadto
-0.5 0.1016 -1.0156 0.1016 rquadto
-1.3125 0 -2.0156 -0.6563 rquadto
-0.7031 -0.6563 -0.7031 -1.8594 rquadto
0 -1.0313 0.3672 -1.8906 rquadto
0.3672 -0.8594 1.0859 -1.5313 rquadto
0.5 -0.4688 1.1641 -0.7109 rquadto
0.6641 -0.2422 1.4453 -0.2422 rquadto
0.4531 0 0.9063 0.1016 rquadto
0.4531 0.1016 0.9219 0.3047 rquadto
closepath
} def
/P$30 {
1.1719 0 rlineto
0 1.4844 rlineto
-1.1719 0 rlineto
0 -1.4844 rlineto
closepath
} def
/P$6 {
-0.1719 0.8438 rlineto
-2.1406 0 rlineto
-0.7031 3.5625 rlineto
-0.0313 0.1875 -0.0469 0.3281 rquadto
-0.0156 0.1406 -0.0156 0.2031 rquadto
0 0.375 0.2188 0.5469 rquadto
0.2188 0.1719 0.7188 0.1719 rquadto
1.0938 0 rlineto
-0.1875 0.9063 rlineto
-1.0313 0 rlineto
-0.9531 0 -1.4219 -0.375 rquadto
-0.4688 -0.375 -0.4688 -1.1406 rquadto
0 -0.125 0.0156 -0.2891 rquadto
0.0156 -0.1641 0.0469 -0.3516 rquadto
0.7031 -3.5625 rlineto
-0.9219 0 rlineto
0.1719 -0.8438 rlineto
0.8906 0 rlineto
0.375 -1.8594 rlineto
1.0781 0 rlineto
-0.3594 1.8594 rlineto
2.1563 0 rlineto
closepath
} def
/P$2c {
-0.1563 -0.0938 -0.3516 -0.1406 rquadto
-0.1953 -0.0469 -0.4297 -0.0469 rquadto
-0.8438 0 -1.2891 0.5469 rquadto
-0.4453 0.5469 -0.4453 1.5625 rquadto
0 3.1719 rlineto
-1 0 rlineto
0 -6.0156 rlineto
1 0 rlineto
0 0.9375 rlineto
0.2969 -0.5469 0.7969 -0.8125 rquadto
0.5 -0.2656 1.2188 -0.2656 rquadto
0.1094 0 0.2266 0.0078 rquadto
0.1172 0.0078 0.2734 0.0391 rquadto
0 1.0156 rlineto
closepath
} def
/P$2x {
1.3438 0 rlineto
0 1.6094 rlineto
-1.3438 0 rlineto
0 -1.6094 rlineto
closepath
} def
/P$s {
0.3906 -0.5469 0.9922 -0.8516 rquadto
0.6016 -0.3047 1.2578 -0.3047 rquadto
1.0156 0 1.6094 0.6797 rquadto
0.5938 0.6797 0.5938 1.8359 rquadto
0 0.9531 -0.3516 1.8438 rquadto
-0.3516 0.8906 -0.9922 1.5781 rquadto
-0.4219 0.4531 -0.9766 0.7031 rquadto
-0.5547 0.25 -1.1484 0.25 rquadto
-0.6406 0 -1.1094 -0.2969 rquadto
-0.4688 -0.2969 -0.7656 -0.875 rquadto
-0.1875 1 rlineto
-1.0781 0 rlineto
1.7656 -9.125 rlineto
1.0781 0 rlineto
-0.6875 3.5625 rlineto
closepath
} def
/P$u {
-0.7656 3.9688 rlineto
-1.0938 0 rlineto
0.7813 -3.9219 rlineto
0.0469 -0.2813 0.0781 -0.4922 rquadto
0.0313 -0.2109 0.0313 -0.3203 rquadto
0 -0.5 -0.3125 -0.7734 rquadto
-0.3125 -0.2734 -0.875 -0.2734 rquadto
-0.8594 0 -1.5 0.5859 rquadto
-0.6406 0.5859 -0.8281 1.5547 rquadto
-0.7031 3.6406 rlineto
-1.0781 0 rlineto
1.7813 -9.125 rlineto
1.0781 0 rlineto
-0.7031 3.5938 rlineto
0.4063 -0.5469 1.0469 -0.8672 rquadto
0.6406 -0.3203 1.3438 -0.3203 rquadto
0.875 0 1.3516 0.4688 rquadto
0.4766 0.4688 0.4766 1.3125 rquadto
0 0.2188 -0.0313 0.4531 rquadto
-0.0313 0.2344 -0.0781 0.5156 rquadto
closepath
} def
/P$2z {
1.1719 0 rlineto
0 7.1094 rlineto
-1.1719 0 rlineto
0 -7.1094 rlineto
closepath
} def
/P$1f {
0 3.9688 rlineto
-1.0781 0 rlineto
0 -3.9219 rlineto
0 -0.9375 -0.3672 -1.3984 rquadto
-0.3672 -0.4609 -1.0859 -0.4609 rquadto
-0.875 0 -1.3828 0.5547 rquadto
-0.5078 0.5547 -0.5078 1.5234 rquadto
0 3.7031 rlineto
-1.0781 0 rlineto
0 -6.5625 rlineto
1.0781 0 rlineto
0 1.0156 rlineto
0.3906 -0.5938 0.9141 -0.8828 rquadto
0.5234 -0.2891 1.2109 -0.2891 rquadto
1.125 0 1.7109 0.6953 rquadto
0.5859 0.6953 0.5859 2.0547 rquadto
closepath
} def
/P$32 {
0 4.0625 rlineto
-1.1563 0 rlineto
0 -1.0781 rlineto
-0.4063 0.6406 -1 0.9531 rquadto
-0.5938 0.3125 -1.4688 0.3125 rquadto
-1.0938 0 -1.7344 -0.6172 rquadto
-0.6406 -0.6172 -0.6406 -1.6328 rquadto
0 -1.2031 0.8047 -1.8125 rquadto
0.8047 -0.6094 2.3984 -0.6094 rquadto
1.6406 0 rlineto
0 -0.125 rlineto
0 -0.7969 -0.5313 -1.2422 rquadto
-0.5313 -0.4453 -1.5 -0.4453 rquadto
-0.6094 0 -1.1875 0.1484 rquadto
-0.5781 0.1484 -1.1094 0.4453 rquadto
0 -1.0781 rlineto
0.6406 -0.25 1.25 -0.375 rquadto
0.6094 -0.125 1.1719 -0.125 rquadto
1.5469 0 2.3047 0.7969 rquadto
0.7578 0.7969 0.7578 2.4219 rquadto
closepath
} def
/P$1 {
-0.2344 1.1719 rlineto
-2.0781 1.5781 rlineto
1.4844 1.5625 rlineto
-0.2188 1.0625 rlineto
-2.2656 -2.4531 rlineto
0.0938 -0.4688 rlineto
3.2188 -2.4531 rlineto
closepath
} def
/P$2u {
-0.0156 -0.9531 -0.5391 -1.5313 rquadto
-0.5234 -0.5781 -1.3828 -0.5781 rquadto
-0.9844 0 -1.5703 0.5547 rquadto
-0.5859 0.5547 -0.6797 1.5547 rquadto
4.1719 0 rlineto
closepath
} def
/P$2y {
-2.2813 1.2344 rlineto
2.2813 1.2344 rlineto
-0.3594 0.625 rlineto
-2.1406 -1.2813 rlineto
0 2.3906 rlineto
-0.7188 0 rlineto
0 -2.3906 rlineto
-2.1406 1.2813 rlineto
-0.3594 -0.625 rlineto
2.2813 -1.2344 rlineto
-2.2813 -1.2344 rlineto
0.3594 -0.625 rlineto
2.1406 1.2969 rlineto
0 -2.4063 rlineto
0.7188 0 rlineto
0 2.4063 rlineto
2.1406 -1.2969 rlineto
0.3594 0.625 rlineto
closepath
} def
/P$x {
0.375 0.0938 0.625 0.4375 rquadto
0.25 0.3438 0.5781 1.375 rquadto
0.7344 2.3906 rlineto
-1.25 0 rlineto
-0.6875 -2.25 rlineto
-0.25 -0.8594 -0.6016 -1.1563 rquadto
-0.3516 -0.2969 -1.0547 -0.2969 rquadto
-1.3125 0 rlineto
-0.7188 3.7031 rlineto
-1.1875 0 rlineto
1.7031 -8.75 rlineto
2.6563 0 rlineto
1.2188 0 1.8672 0.5469 rquadto
0.6484 0.5469 0.6484 1.5781 rquadto
0 0.9219 -0.5547 1.5859 rquadto
-0.5547 0.6641 -1.4453 0.8359 rquadto
closepath
} def
/P$25 {
0 1.1563 rlineto
-0.6719 -0.3125 -1.2734 -0.4766 rquadto
-0.6016 -0.1641 -1.1484 -0.1641 rquadto
-0.9688 0 -1.4922 0.375 rquadto
-0.5234 0.375 -0.5234 1.0781 rquadto
0 0.5781 0.3438 0.875 rquadto
0.3438 0.2969 1.3281 0.4688 rquadto
0.7031 0.1563 rlineto
1.3281 0.25 1.9609 0.8828 rquadto
0.6328 0.6328 0.6328 1.6953 rquadto
0 1.2813 -0.8516 1.9375 rquadto
-0.8516 0.6563 -2.5078 0.6563 rquadto
-0.6094 0 -1.3125 -0.1406 rquadto
-0.7031 -0.1406 -1.4531 -0.4219 rquadto
0 -1.2188 rlineto
0.7188 0.4063 1.4141 0.6094 rquadto
0.6953 0.2031 1.3516 0.2031 rquadto
1.0156 0 1.5703 -0.3984 rquadto
0.5547 -0.3984 0.5547 -1.1328 rquadto
0 -0.6406 -0.3984 -1.0078 rquadto
-0.3984 -0.3672 -1.3047 -0.5391 rquadto
-0.7188 -0.1406 rlineto
-1.3281 -0.2656 -1.9141 -0.8281 rquadto
-0.5859 -0.5625 -0.5859 -1.5625 rquadto
0 -1.1719 0.8125 -1.8359 rquadto
0.8125 -0.6641 2.25 -0.6641 rquadto
0.625 0 1.2578 0.1094 rquadto
0.6328 0.1094 1.3047 0.3281 rquadto
closepath
} def
/P$1l {
0 1.1875 0.4844 1.8672 rquadto
0.4844 0.6797 1.3438 0.6797 rquadto
0.8594 0 1.3516 -0.6797 rquadto
0.4922 -0.6797 0.4922 -1.8672 rquadto
0 -1.1875 -0.4922 -1.8594 rquadto
-0.4922 -0.6719 -1.3516 -0.6719 rquadto
-0.8594 0 -1.3438 0.6719 rquadto
-0.4844 0.6719 -0.4844 1.8594 rquadto
closepath
} def
/P$2p {
0.8594 0 rlineto
0.8125 1.2656 1.2109 2.4766 rquadto
0.3984 1.2109 0.3984 2.4141 rquadto
0 1.2031 -0.3984 2.4219 rquadto
-0.3984 1.2188 -1.2109 2.4844 rquadto
-0.8594 0 rlineto
0.7188 -1.2344 1.0703 -2.4531 rquadto
0.3516 -1.2188 0.3516 -2.4531 rquadto
0 -1.2344 -0.3516 -2.4453 rquadto
-0.3516 -1.2109 -1.0703 -2.4453 rquadto
closepath
} def
/P$1q {
1.7656 0 rlineto
2.2344 5.9531 rlineto
2.25 -5.9531 rlineto
1.7656 0 rlineto
0 8.75 rlineto
-1.1563 0 rlineto
0 -7.6875 rlineto
-2.2656 6 rlineto
-1.1875 0 rlineto
-2.25 -6 rlineto
0 7.6875 rlineto
-1.1563 0 rlineto
0 -8.75 rlineto
closepath
} def
/P$19 {
0 3.1094 rlineto
1.4844 0 rlineto
0.8594 0 1.2969 -0.3984 rquadto
0.4375 -0.3984 0.4375 -1.1641 rquadto
0 -0.7656 -0.4375 -1.1563 rquadto
-0.4375 -0.3906 -1.2969 -0.3906 rquadto
-1.4844 0 rlineto
closepath
} def
/P$e {
0.2344 -1.1719 rlineto
2.0781 -1.5938 rlineto
-1.4688 -1.5625 rlineto
0.2188 -1.0469 rlineto
2.2656 2.4531 rlineto
-0.0938 0.4688 rlineto
-3.2344 2.4531 rlineto
closepath
} def
/P$t {
1.0781 0 rlineto
-1.7813 9.125 rlineto
-1.0781 0 rlineto
1.7813 -9.125 rlineto
closepath
} def
/P$31 {
-1.4063 0 -1.9531 0.3281 rquadto
-0.5469 0.3281 -0.5469 1.1094 rquadto
0 0.6094 0.4063 0.9766 rquadto
0.4063 0.3672 1.1094 0.3672 rquadto
0.9688 0 1.5625 -0.6875 rquadto
0.5938 -0.6875 0.5938 -1.8281 rquadto
0 -0.2656 rlineto
-1.1719 0 rlineto
closepath
} def
/P$22 {
0 2.6406 rlineto
1.75 0 rlineto
0.875 0 1.2969 -0.3281 rquadto
0.4219 -0.3281 0.4219 -0.9844 rquadto
0 -0.6719 -0.4219 -1 rquadto
-0.4219 -0.3281 -1.2969 -0.3281 rquadto
-1.75 0 rlineto
closepath
} def
/P$2w {
1.5938 0 2.4375 1.2656 rquadto
0.8438 1.2656 0.8438 3.6563 rquadto
0 2.3906 -0.8438 3.6563 rquadto
-0.8438 1.2656 -2.4375 1.2656 rquadto
-1.5781 0 -2.4219 -1.2656 rquadto
-0.8438 -1.2656 -0.8438 -3.6563 rquadto
0 -2.3906 0.8438 -3.6563 rquadto
0.8438 -1.2656 2.4219 -1.2656 rquadto
closepath
} def
/P$2l {
0 -3.25 rlineto
0.9844 0 rlineto
0 8.3594 rlineto
-0.9844 0 rlineto
0 -0.9063 rlineto
-0.3125 0.5469 -0.7891 0.8047 rquadto
-0.4766 0.2578 -1.1484 0.2578 rquadto
-1.0781 0 -1.7656 -0.8672 rquadto
-0.6875 -0.8672 -0.6875 -2.2891 rquadto
0 -1.4219 0.6875 -2.2891 rquadto
0.6875 -0.8672 1.7656 -0.8672 rquadto
0.6719 0 1.1484 0.2578 rquadto
0.4766 0.2578 0.7891 0.7891 rquadto
closepath
} def
/P$m {
-0.4375 0.5625 -1.0234 0.8594 rquadto
-0.5859 0.2969 -1.3203 0.2969 rquadto
-0.9844 0 -1.5547 -0.6719 rquadto
-0.5703 -0.6719 -0.5703 -1.8438 rquadto
0 -0.9688 0.3516 -1.8516 rquadto
0.3516 -0.8828 1.0078 -1.5703 rquadto
0.4219 -0.4688 0.9688 -0.7109 rquadto
0.5469 -0.2422 1.1406 -0.2422 rquadto
0.6406 0 1.125 0.3047 rquadto
0.4844 0.3047 0.75 0.8672 rquadto
0.7031 -3.5781 rlineto
1.0781 0 rlineto
-1.7813 9.125 rlineto
-1.0781 0 rlineto
0.2031 -0.9844 rlineto
closepath
} def
/P$2r {
0 -4.2969 rlineto
1.1563 0 rlineto
0 4.2656 rlineto
0 1 0.3984 1.5078 rquadto
0.3984 0.5078 1.1797 0.5078 rquadto
0.9531 0 1.5 -0.6016 rquadto
0.5469 -0.6016 0.5469 -1.6484 rquadto
0 -4.0313 rlineto
1.1719 0 rlineto
0 7.1094 rlineto
-1.1719 0 rlineto
0 -1.0938 rlineto
-0.4219 0.6563 -0.9844 0.9688 rquadto
-0.5625 0.3125 -1.3125 0.3125 rquadto
-1.2188 0 -1.8516 -0.7656 rquadto
-0.6328 -0.7656 -0.6328 -2.2344 rquadto
closepath
} def
/P$1j {
1.0781 0 rlineto
0 9.125 rlineto
-1.0781 0 rlineto
0 -9.125 rlineto
closepath
} def
/P$1x {
-1.2969 0 -2.0547 0.9609 rquadto
-0.7578 0.9609 -0.7578 2.6328 rquadto
0 1.6406 0.7578 2.6016 rquadto
0.7578 0.9609 2.0547 0.9609 rquadto
1.2813 0 2.0391 -0.9609 rquadto
0.7578 -0.9609 0.7578 -2.6016 rquadto
0 -1.6719 -0.7578 -2.6328 rquadto
-0.7578 -0.9609 -2.0391 -0.9609 rquadto
closepath
} def
/P$1i {
0 0 rlineto
closepath
} def
/P$c {
-1.0781 0 rlineto
-1.3281 0 -1.9609 0.3516 rquadto
-0.6328 0.3516 -0.6328 1.1016 rquadto
0 0.5156 0.3203 0.8047 rquadto
0.3203 0.2891 0.8984 0.2891 rquadto
0.875 0 1.5313 -0.625 rquadto
0.6563 -0.625 0.875 -1.6875 rquadto
0.0469 -0.2344 rlineto
closepath
} def
/P$29 {
0 3.9688 rlineto
-1.0781 0 rlineto
0 -3.9219 rlineto
0 -0.9375 -0.3672 -1.3984 rquadto
-0.3672 -0.4609 -1.0859 -0.4609 rquadto
-0.875 0 -1.3828 0.5547 rquadto
-0.5078 0.5547 -0.5078 1.5234 rquadto
0 3.7031 rlineto
-1.0781 0 rlineto
0 -9.125 rlineto
1.0781 0 rlineto
0 3.5781 rlineto
0.3906 -0.5938 0.9141 -0.8828 rquadto
0.5234 -0.2891 1.2109 -0.2891 rquadto
1.125 0 1.7109 0.6953 rquadto
0.5859 0.6953 0.5859 2.0547 rquadto
closepath
} def
/P$r {
0 -0.8438 -0.3906 -1.3203 rquadto
-0.3906 -0.4766 -1.0625 -0.4766 rquadto
-0.5 0 -0.9375 0.2422 rquadto
-0.4375 0.2422 -0.7656 0.6953 rquadto
-0.3438 0.4844 -0.5391 1.1328 rquadto
-0.1953 0.6484 -0.1953 1.2734 rquadto
0 0.8125 0.3828 1.2734 rquadto
0.3828 0.4609 1.0703 0.4609 rquadto
0.5 0 0.9375 -0.2344 rquadto
0.4375 -0.2344 0.7656 -0.7031 rquadto
0.3281 -0.4844 0.5313 -1.1172 rquadto
0.2031 -0.6328 0.2031 -1.2266 rquadto
closepath
} def
/P$l {
0 0.8906 0.375 1.3281 rquadto
0.375 0.4375 1.125 0.4375 rquadto
1.0781 0 1.7891 -0.9453 rquadto
0.7109 -0.9453 0.7109 -2.3984 rquadto
0 -0.8438 -0.375 -1.2813 rquadto
-0.375 -0.4375 -1.125 -0.4375 rquadto
-0.6094 0 -1.0781 0.2891 rquadto
-0.4688 0.2891 -0.8438 0.8672 rquadto
-0.2813 0.4375 -0.4297 0.9922 rquadto
-0.1484 0.5547 -0.1484 1.1484 rquadto
closepath
} def
/P$2g {
0 0.4844 rlineto
-4.5469 0 rlineto
0.0625 1.0156 0.6094 1.5469 rquadto
0.5469 0.5313 1.5313 0.5313 rquadto
0.5781 0 1.1094 -0.1406 rquadto
0.5313 -0.1406 1.0625 -0.4063 rquadto
0 0.9219 rlineto
-0.5313 0.2344 -1.0938 0.3516 rquadto
-0.5625 0.1172 -1.125 0.1172 rquadto
-1.4531 0 -2.2891 -0.8359 rquadto
-0.8359 -0.8359 -0.8359 -2.2734 rquadto
0 -1.4688 0.7969 -2.3359 rquadto
0.7969 -0.8672 2.1563 -0.8672 rquadto
1.2031 0 1.9141 0.7813 rquadto
0.7109 0.7813 0.7109 2.125 rquadto
closepath
} def
/P$2s {
0 1.1094 rlineto
-0.4844 -0.25 -1.0156 -0.375 rquadto
-0.5313 -0.125 -1.1094 -0.125 rquadto
-0.875 0 -1.3047 0.2656 rquadto
-0.4297 0.2656 -0.4297 0.7969 rquadto
0 0.4063 0.3047 0.6328 rquadto
0.3047 0.2266 1.2578 0.4453 rquadto
0.3906 0.0938 rlineto
1.25 0.2656 1.7734 0.75 rquadto
0.5234 0.4844 0.5234 1.3438 rquadto
0 1 -0.7813 1.5781 rquadto
-0.7813 0.5781 -2.1563 0.5781 rquadto
-0.5781 0 -1.1953 -0.1094 rquadto
-0.6172 -0.1094 -1.3047 -0.3438 rquadto
0 -1.2031 rlineto
0.6563 0.3438 1.2813 0.5078 rquadto
0.625 0.1641 1.2344 0.1641 rquadto
0.8281 0 1.2734 -0.2813 rquadto
0.4453 -0.2813 0.4453 -0.7969 rquadto
0 -0.4688 -0.3203 -0.7266 rquadto
-0.3203 -0.2578 -1.3984 -0.4922 rquadto
-0.4063 -0.0938 rlineto
-1.0938 -0.2344 -1.5781 -0.7031 rquadto
-0.4844 -0.4688 -0.4844 -1.2969 rquadto
0 -1 0.7109 -1.5469 rquadto
0.7109 -0.5469 2.0234 -0.5469 rquadto
0.6406 0 1.2188 0.0938 rquadto
0.5781 0.0938 1.0469 0.2813 rquadto
closepath
} def
/P$v {
-0.2188 1.1563 rlineto
-0.5938 -0.3125 -1.1797 -0.4766 rquadto
-0.5859 -0.1641 -1.1328 -0.1641 rquadto
-1.0625 0 -1.6875 0.4688 rquadto
-0.625 0.4688 -0.625 1.2344 rquadto
0 0.4219 0.2344 0.6484 rquadto
0.2344 0.2266 1.1875 0.4766 rquadto
0.7188 0.1719 rlineto
1.1875 0.3125 1.6563 0.7891 rquadto
0.4688 0.4766 0.4688 1.3516 rquadto
0 1.3125 -1.0391 2.1484 rquadto
-1.0391 0.8359 -2.7266 0.8359 rquadto
-0.7031 0 -1.4063 -0.1406 rquadto
-0.7031 -0.1406 -1.4063 -0.4219 rquadto
0.2344 -1.2188 rlineto
0.6563 0.4063 1.3047 0.6094 rquadto
0.6484 0.2031 1.3047 0.2031 rquadto
1.1094 0 1.7734 -0.4922 rquadto
0.6641 -0.4922 0.6641 -1.2734 rquadto
0 -0.5313 -0.2656 -0.8047 rquadto
-0.2656 -0.2734 -1.1406 -0.4922 rquadto
-0.7188 -0.1875 rlineto
-1.2031 -0.3125 -1.6484 -0.7266 rquadto
-0.4453 -0.4141 -0.4453 -1.1641 rquadto
0 -1.2969 1.0078 -2.1328 rquadto
1.0078 -0.8359 2.6172 -0.8359 rquadto
0.625 0 1.2422 0.1094 rquadto
0.6172 0.1094 1.2266 0.3281 rquadto
closepath
} def
/P$2 {
-0.2188 1.1719 rlineto
-2.0781 1.5781 rlineto
1.4688 1.5625 rlineto
-0.2188 1.0625 rlineto
-2.2656 -2.4531 rlineto
0.1094 -0.4688 rlineto
3.2031 -2.4531 rlineto
closepath
} def
/P$1z {
0 3.4844 rlineto
-1.0781 0 rlineto
0 -9.0625 rlineto
1.0781 0 rlineto
0 1 rlineto
0.3438 -0.5938 0.8594 -0.875 rquadto
0.5156 -0.2813 1.2344 -0.2813 rquadto
1.2031 0 1.9531 0.9453 rquadto
0.75 0.9453 0.75 2.4922 rquadto
0 1.5469 -0.75 2.5 rquadto
-0.75 0.9531 -1.9531 0.9531 rquadto
-0.7188 0 -1.2344 -0.2891 rquadto
-0.5156 -0.2891 -0.8594 -0.8672 rquadto
closepath
} def
/P$k {
-1.1563 0 -1.8281 -0.7109 rquadto
-0.6719 -0.7109 -0.6719 -1.9453 rquadto
0 -0.7188 0.2344 -1.4609 rquadto
0.2344 -0.7422 0.6094 -1.2422 rquadto
0.5781 -0.7813 1.2891 -1.1563 rquadto
0.7109 -0.375 1.6172 -0.375 rquadto
1.125 0 1.8125 0.6953 rquadto
0.6875 0.6953 0.6875 1.8203 rquadto
0 0.7813 -0.2344 1.5547 rquadto
-0.2344 0.7734 -0.5938 1.2891 rquadto
-0.5781 0.7813 -1.2891 1.1563 rquadto
-0.7109 0.375 -1.6328 0.375 rquadto
closepath
} def
/P$1v {
1.1875 0 rlineto
0 7.75 rlineto
4.2656 0 rlineto
0 1 rlineto
-5.4531 0 rlineto
0 -8.75 rlineto
closepath
} def
/P$2d {
-0.7969 0 -1.2578 0.625 rquadto
-0.4609 0.625 -0.4609 1.7031 rquadto
0 1.0781 0.4531 1.6953 rquadto
0.4531 0.6172 1.2656 0.6172 rquadto
0.7813 0 1.2422 -0.6172 rquadto
0.4609 -0.6172 0.4609 -1.6953 rquadto
0 -1.0781 -0.4609 -1.7031 rquadto
-0.4609 -0.625 -1.2422 -0.625 rquadto
closepath
} def
/P$2o {
-1.9219 1.0469 rlineto
1.9219 1.0469 rlineto
-0.3125 0.5313 rlineto
-1.7969 -1.0938 rlineto
0 2.0313 rlineto
-0.625 0 rlineto
0 -2.0313 rlineto
-1.7969 1.0938 rlineto
-0.3125 -0.5313 rlineto
1.9219 -1.0469 rlineto
-1.9219 -1.0469 rlineto
0.3125 -0.5313 rlineto
1.7969 1.0938 rlineto
0 -2.0313 rlineto
0.625 0 rlineto
0 2.0313 rlineto
1.7969 -1.0938 rlineto
0.3125 0.5313 rlineto
closepath
} def
/P$h {
-0.2031 1.0313 rlineto
-0.4219 -0.2344 -0.8984 -0.3516 rquadto
-0.4766 -0.1172 -0.9766 -0.1172 rquadto
-0.8594 0 -1.3438 0.2891 rquadto
-0.4844 0.2891 -0.4844 0.7891 rquadto
0 0.5781 1.125 0.8906 rquadto
0.0938 0.0156 0.1406 0.0313 rquadto
0.3438 0.1094 rlineto
1.0781 0.2969 1.4375 0.625 rquadto
0.3594 0.3281 0.3594 0.8906 rquadto
0 1.0469 -0.8281 1.7031 rquadto
-0.8281 0.6563 -2.1719 0.6563 rquadto
-0.5313 0 -1.1016 -0.1016 rquadto
-0.5703 -0.1016 -1.2578 -0.3047 rquadto
0.2031 -1.125 rlineto
0.5938 0.3125 1.1719 0.4688 rquadto
0.5781 0.1563 1.0938 0.1563 rquadto
0.7969 0 1.2891 -0.3359 rquadto
0.4922 -0.3359 0.4922 -0.8672 rquadto
0 -0.5625 -1.2969 -0.9063 rquadto
-0.1094 -0.0313 rlineto
-0.375 -0.0938 rlineto
-0.8125 -0.2188 -1.1953 -0.5703 rquadto
-0.3828 -0.3516 -0.3828 -0.8984 rquadto
0 -1.0469 0.7891 -1.6641 rquadto
0.7891 -0.6172 2.1484 -0.6172 rquadto
0.5313 0 1.0391 0.0859 rquadto
0.5078 0.0859 0.9922 0.2578 rquadto
closepath
} def
/P$p {
-0.6406 3.2969 rlineto
1.4844 0 rlineto
1.0156 0 1.5547 -0.5156 rquadto
0.5391 -0.5156 0.5391 -1.4844 rquadto
0 -0.6094 -0.3672 -0.9531 rquadto
-0.3672 -0.3438 -1.0234 -0.3438 rquadto
-1.5469 0 rlineto
closepath
} def
/P$w {
-0.6094 3.1094 rlineto
1.5313 0 rlineto
0.8906 0 1.4453 -0.4922 rquadto
0.5547 -0.4922 0.5547 -1.2891 rquadto
0 -0.6406 -0.375 -0.9844 rquadto
-0.375 -0.3438 -1.0625 -0.3438 rquadto
-1.4844 0 rlineto
closepath
} def
/P$1d {
1.1406 0 rlineto
2.0469 5.5 rlineto
2.0625 -5.5 rlineto
1.1406 0 rlineto
-2.4688 6.5625 rlineto
-1.4688 0 rlineto
-2.4531 -6.5625 rlineto
closepath
} def
/P$1o {
0 1.8594 rlineto
2.2188 0 rlineto
0 0.8438 rlineto
-2.2188 0 rlineto
0 3.5625 rlineto
0 0.7969 0.2188 1.0234 rquadto
0.2188 0.2266 0.8906 0.2266 rquadto
1.1094 0 rlineto
0 0.9063 rlineto
-1.1094 0 rlineto
-1.25 0 -1.7266 -0.4688 rquadto
-0.4766 -0.4688 -0.4766 -1.6875 rquadto
0 -3.5625 rlineto
-0.7813 0 rlineto
0 -0.8438 rlineto
0.7813 0 rlineto
0 -1.8594 rlineto
1.0938 0 rlineto
closepath
} def
/P$2h {
0 -0.8125 -0.4453 -1.2969 rquadto
-0.4453 -0.4844 -1.1797 -0.4844 rquadto
-0.8281 0 -1.3203 0.4688 rquadto
-0.4922 0.4688 -0.5703 1.3125 rquadto
3.5156 0 rlineto
closepath
} def
/P$15 {
1.0781 0 rlineto
0 5.3906 rlineto
3.2188 -2.8281 rlineto
1.375 0 rlineto
-3.4844 3.0625 rlineto
3.6406 3.5 rlineto
-1.4063 0 rlineto
-3.3438 -3.2031 rlineto
0 3.2031 rlineto
-1.0781 0 rlineto
0 -9.125 rlineto
closepath
} def
/P$1a {
0 1.0156 rlineto
-0.4688 -0.2656 -0.9219 -0.3906 rquadto
-0.4531 -0.125 -0.9219 -0.125 rquadto
-1.0625 0 -1.6406 0.6641 rquadto
-0.5781 0.6641 -0.5781 1.8672 rquadto
0 1.2031 0.5781 1.8672 rquadto
0.5781 0.6641 1.6406 0.6641 rquadto
0.4688 0 0.9219 -0.125 rquadto
0.4531 -0.125 0.9219 -0.375 rquadto
0 1 rlineto
-0.4531 0.2031 -0.9375 0.3125 rquadto
-0.4844 0.1094 -1.0313 0.1094 rquadto
-1.4844 0 -2.3594 -0.9297 rquadto
-0.875 -0.9297 -0.875 -2.5234 rquadto
0 -1.5938 0.8828 -2.5156 rquadto
0.8828 -0.9219 2.4297 -0.9219 rquadto
0.4844 0 0.9609 0.1016 rquadto
0.4766 0.1016 0.9297 0.3047 rquadto
closepath
} def
/P$2i {
0 0.9375 rlineto
-0.4219 -0.2188 -0.875 -0.3203 rquadto
-0.4531 -0.1016 -0.9375 -0.1016 rquadto
-0.7344 0 -1.1016 0.2266 rquadto
-0.3672 0.2266 -0.3672 0.6641 rquadto
0 0.3438 0.2656 0.5391 rquadto
0.2656 0.1953 1.0625 0.3828 rquadto
0.3281 0.0781 rlineto
1.0625 0.2188 1.5 0.6328 rquadto
0.4375 0.4141 0.4375 1.1484 rquadto
0 0.8281 -0.6563 1.3203 rquadto
-0.6563 0.4922 -1.8281 0.4922 rquadto
-0.4844 0 -1.0078 -0.0938 rquadto
-0.5234 -0.0938 -1.1016 -0.2813 rquadto
0 -1.0156 rlineto
0.5469 0.2813 1.0781 0.4219 rquadto
0.5313 0.1406 1.0625 0.1406 rquadto
0.6875 0 1.0625 -0.2422 rquadto
0.375 -0.2422 0.375 -0.6641 rquadto
0 -0.4063 -0.2656 -0.625 rquadto
-0.2656 -0.2188 -1.1875 -0.4063 rquadto
-0.3438 -0.0938 rlineto
-0.9219 -0.1875 -1.3281 -0.5859 rquadto
-0.4063 -0.3984 -0.4063 -1.1016 rquadto
0 -0.8438 0.6016 -1.3047 rquadto
0.6016 -0.4609 1.7109 -0.4609 rquadto
0.5469 0 1.0313 0.0781 rquadto
0.4844 0.0781 0.8906 0.2344 rquadto
closepath
} def
/P$8 {
-5.0156 0 rlineto
-0.0313 0.2344 -0.0391 0.3594 rquadto
-0.0078 0.125 -0.0078 0.2188 rquadto
0 0.8125 0.5 1.2578 rquadto
0.5 0.4453 1.4063 0.4453 rquadto
0.7031 0 1.3359 -0.1563 rquadto
0.6328 -0.1563 1.1641 -0.4531 rquadto
-0.2031 1.0625 rlineto
-0.5781 0.2344 -1.1953 0.3516 rquadto
-0.6172 0.1172 -1.2578 0.1172 rquadto
-1.375 0 -2.1094 -0.6563 rquadto
-0.7344 -0.6563 -0.7344 -1.8594 rquadto
0 -1.0156 0.3672 -1.8984 rquadto
0.3672 -0.8828 1.0859 -1.5703 rquadto
0.4531 -0.4375 1.0781 -0.6719 rquadto
0.625 -0.2344 1.3438 -0.2344 rquadto
1.1094 0 1.7656 0.6641 rquadto
0.6563 0.6641 0.6563 1.7891 rquadto
0 0.2813 -0.0313 0.5859 rquadto
-0.0313 0.3047 -0.1094 0.6484 rquadto
closepath
} def
/P$2e {
1.2813 0 2.0156 0.8359 rquadto
0.7344 0.8359 0.7344 2.3203 rquadto
0 1.4688 -0.7344 2.3125 rquadto
-0.7344 0.8438 -2.0156 0.8438 rquadto
-1.2969 0 -2.0313 -0.8438 rquadto
-0.7344 -0.8438 -0.7344 -2.3125 rquadto
0 -1.4844 0.7344 -2.3203 rquadto
0.7344 -0.8359 2.0313 -0.8359 rquadto
closepath
} def
/P$1y {
1.8281 0 2.9297 1.2344 rquadto
1.1016 1.2344 1.1016 3.3125 rquadto
0 2.0625 -1.1016 3.2969 rquadto
-1.1016 1.2344 -2.9297 1.2344 rquadto
-1.8438 0 -2.9531 -1.2344 rquadto
-1.1094 -1.2344 -1.1094 -3.2969 rquadto
0 -2.0781 1.1094 -3.3125 rquadto
1.1094 -1.2344 2.9531 -1.2344 rquadto
closepath
} def
/P$28 {
2.4375 0 rlineto
2.5469 0 3.7344 1.0547 rquadto
1.1875 1.0547 1.1875 3.3047 rquadto
0 2.2656 -1.1953 3.3281 rquadto
-1.1953 1.0625 -3.7266 1.0625 rquadto
-2.4375 0 rlineto
0 -8.75 rlineto
closepath
} def
/P$4 {
1.0781 0 rlineto
-1.2813 6.5625 rlineto
-1.0781 0 rlineto
1.2813 -6.5625 rlineto
closepath
} def
/P$1n {
0 3.75 rlineto
-1.0781 0 rlineto
0 -1 rlineto
-0.375 0.5938 -0.9219 0.8828 rquadto
-0.5469 0.2891 -1.3438 0.2891 rquadto
-1.0156 0 -1.6094 -0.5703 rquadto
-0.5938 -0.5703 -0.5938 -1.5078 rquadto
0 -1.1094 0.7422 -1.6719 rquadto
0.7422 -0.5625 2.2109 -0.5625 rquadto
1.5156 0 rlineto
0 -0.1094 rlineto
0 -0.75 -0.4922 -1.1563 rquadto
-0.4922 -0.4063 -1.3672 -0.4063 rquadto
-0.5625 0 -1.1016 0.1406 rquadto
-0.5391 0.1406 -1.0234 0.4063 rquadto
0 -1 rlineto
0.5938 -0.2344 1.1484 -0.3438 rquadto
0.5547 -0.1094 1.0859 -0.1094 rquadto
1.4219 0 2.125 0.7344 rquadto
0.7031 0.7344 0.7031 2.2344 rquadto
closepath
} def
/P$n {
0 0.8438 0.3828 1.3203 rquadto
0.3828 0.4766 1.0703 0.4766 rquadto
0.5 0 0.9297 -0.2422 rquadto
0.4297 -0.2422 0.7578 -0.7109 rquadto
0.3438 -0.5 0.5469 -1.1406 rquadto
0.2031 -0.6406 0.2031 -1.2813 rquadto
0 -0.8125 -0.3906 -1.2656 rquadto
-0.3906 -0.4531 -1.0625 -0.4531 rquadto
-0.5 0 -0.9453 0.2422 rquadto
-0.4453 0.2422 -0.7422 0.6797 rquadto
-0.3438 0.5 -0.5469 1.1406 rquadto
-0.2031 0.6406 -0.2031 1.2344 rquadto
closepath
} def
/P$14 {
-0.1875 -0.0938 -0.3984 -0.1484 rquadto
-0.2109 -0.0547 -0.4766 -0.0547 rquadto
-0.9063 0 -1.3984 0.5938 rquadto
-0.4922 0.5938 -0.4922 1.7188 rquadto
0 3.4531 rlineto
-1.0781 0 rlineto
0 -6.5625 rlineto
1.0781 0 rlineto
0 1.0156 rlineto
0.3438 -0.5938 0.8906 -0.8828 rquadto
0.5469 -0.2891 1.3281 -0.2891 rquadto
0.1094 0 0.2422 0.0156 rquadto
0.1328 0.0156 0.2891 0.0469 rquadto
0.0156 1.0938 rlineto
closepath
} def
/P$0 {
0 -2.1563 rlineto
7.3906 0 rlineto
0 2.1563 rlineto
-2.4688 0 rlineto
0 8.0781 rlineto
2.4688 0 rlineto
0 2.1563 rlineto
-7.3906 0 rlineto
0 -2.1563 rlineto
2.4688 0 rlineto
0 -8.0781 rlineto
-2.4688 0 rlineto
closepath
} def
/P$16 {
0 0.5156 rlineto
-4.9688 0 rlineto
0.0781 1.125 0.6797 1.7031 rquadto
0.6016 0.5781 1.6641 0.5781 rquadto
0.625 0 1.2109 -0.1484 rquadto
0.5859 -0.1484 1.1641 -0.4609 rquadto
0 1.0313 rlineto
-0.5938 0.2344 -1.2031 0.3672 rquadto
-0.6094 0.1328 -1.2344 0.1328 rquadto
-1.5625 0 -2.4844 -0.9141 rquadto
-0.9219 -0.9141 -0.9219 -2.4766 rquadto
0 -1.6094 0.875 -2.5547 rquadto
0.875 -0.9453 2.3438 -0.9453 rquadto
1.3281 0 2.1016 0.8516 rquadto
0.7734 0.8516 0.7734 2.3203 rquadto
closepath
} def
/P$1s {
0 1.6719 -0.7422 2.4922 rquadto
-0.7422 0.8203 -2.2891 0.8203 rquadto
-0.5625 0 -1.0703 -0.0859 rquadto
-0.5078 -0.0859 -0.9766 -0.2578 rquadto
0 -1.0469 rlineto
0.4688 0.25 0.9375 0.375 rquadto
0.4688 0.125 0.9375 0.125 rquadto
1.0625 0 1.5938 -0.5547 rquadto
0.5313 -0.5547 0.5313 -1.6797 rquadto
0 -0.5313 rlineto
-0.3438 0.5781 -0.8594 0.8672 rquadto
-0.5156 0.2891 -1.25 0.2891 rquadto
-1.2031 0 -1.9453 -0.9219 rquadto
-0.7422 -0.9219 -0.7422 -2.4375 rquadto
0 -1.5156 0.7422 -2.4375 rquadto
0.7422 -0.9219 1.9453 -0.9219 rquadto
0.7344 0 1.25 0.2891 rquadto
0.5156 0.2891 0.8594 0.8672 rquadto
0 -1 rlineto
1.0781 0 rlineto
0 5.75 rlineto
closepath
} def
/P$i {
1.0781 0 rlineto
-1.0313 5.3281 rlineto
3.6875 -2.7656 rlineto
1.4063 0 rlineto
-4.125 3.1406 rlineto
3.0156 3.4219 rlineto
-1.3125 0 rlineto
-2.7969 -3.2031 rlineto
-0.625 3.2031 rlineto
-1.0781 0 rlineto
1.7813 -9.125 rlineto
closepath
} def
/P$1b {
1.0781 0 rlineto
0 6.5625 rlineto
-1.0781 0 rlineto
0 -6.5625 rlineto
closepath
} def
/P$2q {
2.0938 0 rlineto
0 -7.2344 rlineto
-2.2813 0.4531 rlineto
0 -1.1563 rlineto
2.2656 -0.4688 rlineto
1.2969 0 rlineto
0 8.4063 rlineto
2.0938 0 rlineto
0 1.0781 rlineto
-5.4688 0 rlineto
0 -1.0781 rlineto
closepath
} def
/P$1g {
0 1.0313 rlineto
-0.4531 -0.2344 -0.9453 -0.3516 rquadto
-0.4922 -0.1172 -1.0234 -0.1172 rquadto
-0.7969 0 -1.2031 0.2422 rquadto
-0.4063 0.2422 -0.4063 0.7422 rquadto
0 0.375 0.2891 0.5859 rquadto
0.2891 0.2109 1.1641 0.3984 rquadto
0.3594 0.0938 rlineto
1.1563 0.2344 1.6406 0.6875 rquadto
0.4844 0.4531 0.4844 1.25 rquadto
0 0.9219 -0.7266 1.4531 rquadto
-0.7266 0.5313 -1.9922 0.5313 rquadto
-0.5313 0 -1.1016 -0.1016 rquadto
-0.5703 -0.1016 -1.1953 -0.3047 rquadto
0 -1.125 rlineto
0.5938 0.3125 1.1719 0.4688 rquadto
0.5781 0.1563 1.1563 0.1563 rquadto
0.75 0 1.1641 -0.2578 rquadto
0.4141 -0.2578 0.4141 -0.7422 rquadto
0 -0.4375 -0.2969 -0.6719 rquadto
-0.2969 -0.2344 -1.2969 -0.4531 rquadto
-0.375 -0.0781 rlineto
-1 -0.2188 -1.4453 -0.6563 rquadto
-0.4453 -0.4375 -0.4453 -1.1875 rquadto
0 -0.9375 0.6563 -1.4375 rquadto
0.6563 -0.5 1.8594 -0.5 rquadto
0.5938 0 1.125 0.0859 rquadto
0.5313 0.0859 0.9688 0.2578 rquadto
closepath
} def
/P$2k {
0 2.8438 rlineto
1.3594 0 rlineto
0.7813 0 1.1797 -0.3594 rquadto
0.3984 -0.3594 0.3984 -1.0625 rquadto
0 -0.7031 -0.3984 -1.0625 rquadto
-0.3984 -0.3594 -1.1797 -0.3594 rquadto
-1.3594 0 rlineto
closepath
} def
/P$1u {
2.6719 0 rlineto
1.4844 0 2.2344 0.6641 rquadto
0.75 0.6641 0.75 1.9453 rquadto
0 1.2969 -0.75 1.9609 rquadto
-0.75 0.6641 -2.2344 0.6641 rquadto
-1.4844 0 rlineto
0 3.5156 rlineto
-1.1875 0 rlineto
0 -8.75 rlineto
closepath
} def
0.9961 0.9961 0.8078 setrgbcolor
134 53.9375 272.5 226 simplerect
closepath eofill
1.5 setlinewidth
0.6588 0 0.2118 setrgbcolor
134 53.9375 272.5 226 simplerect
closepath stroke
0.7059 0.6549 0.898 setrgbcolor
newpath
287.5 244.9688 11 0 360 arc
closepath eofill
1.0 setlinewidth
0.6588 0 0.2118 setrgbcolor
newpath
287.5 244.9688 11 0 360 arc
closepath stroke
0 setlinewidth
[] 0 setdash
0 0 0 setrgbcolor
newpath
283.4219 240.7344 moveto
P$0
fill
0 setlinewidth
[] 0 setdash
0 0 0 setrgbcolor
newpath
321.5625 235.9355 moveto
P$1
324.1563 235.9355 moveto
P$2
326.7031 233.0137 moveto
P$3
326.2031 235.5762 moveto
P$4
334.1875 238.1699 moveto
P$5
340.5781 235.5762 moveto
P$6
346.2656 238.2637 moveto
P$7
347.2031 239.1074 moveto
P$8
353.8438 236.5762 moveto
P$9
359.2344 233.0137 moveto
P$a
363.9531 238.3887 moveto
P$b
362.7813 238.8418 moveto
P$c
371.9375 235.8262 moveto
P$d
378.2656 238.2637 moveto
P$7
379.2031 239.1074 moveto
P$8
383.8281 241.3105 moveto
P$e
381.25 241.3105 moveto
P$f
fill
0 setlinewidth
[] 0 setdash
0 0 0 setrgbcolor
newpath
302.2031 247.3574 moveto
P$g
314.9531 252.3574 moveto
P$b
313.7813 252.8105 moveto
P$c
322.5 249.7324 moveto
P$h
324.7031 246.9824 moveto
P$i
337.8438 248.0293 moveto
P$j
340.5469 256.2793 moveto
P$k
339.1719 253.5918 moveto
P$l
348.5469 256.2793 moveto
P$k
347.1719 253.5918 moveto
P$l
358.8438 250.5449 moveto
P$9
363.5156 255.123 moveto
P$m
360.1719 253.5762 moveto
P$n
368.7031 246.9824 moveto
P$3
368.2031 249.5449 moveto
P$4
376.1875 252.1387 moveto
P$5
383.9531 252.3574 moveto
P$b
382.7813 252.8105 moveto
P$c
390.5781 249.5449 moveto
P$6
393.5469 256.2793 moveto
P$k
392.1719 253.5918 moveto
P$l
403.8438 250.5449 moveto
P$9
fill
1.5 setlinewidth
0.6588 0 0.2118 setrgbcolor
newpath
273.5 263.9375 moveto
132 0 rlineto
stroke
1.5 setlinewidth
0.6588 0 0.2118 setrgbcolor
newpath
273.5 271.9375 moveto
132 0 rlineto
stroke
0.9961 0.9961 0.8078 setrgbcolor
149 53.9375 485 310 simplerect
closepath eofill
1.5 setlinewidth
0.6588 0 0.2118 setrgbcolor
149 53.9375 485 310 simplerect
closepath stroke
0.7059 0.6549 0.898 setrgbcolor
newpath
500 328.9688 11 0 360 arc
closepath eofill
1.0 setlinewidth
0.6588 0 0.2118 setrgbcolor
newpath
500 328.9688 11 0 360 arc
closepath stroke
0 setlinewidth
[] 0 setdash
0 0 0 setrgbcolor
newpath
495.9219 324.7344 moveto
P$0
fill
0 setlinewidth
[] 0 setdash
0 0 0 setrgbcolor
newpath
541.5625 319.9355 moveto
P$1
544.1563 319.9355 moveto
P$2
546.7031 317.0137 moveto
P$3
546.2031 319.5762 moveto
P$4
554.1875 322.1699 moveto
P$5
560.5781 319.5762 moveto
P$6
566.2656 322.2637 moveto
P$7
567.2031 323.1074 moveto
P$8
573.8438 320.5762 moveto
P$9
579.2344 317.0137 moveto
P$a
583.9531 322.3887 moveto
P$b
582.7813 322.8418 moveto
P$c
591.9375 319.8262 moveto
P$d
598.2656 322.2637 moveto
P$7
599.2031 323.1074 moveto
P$8
603.8281 325.3105 moveto
P$e
601.25 325.3105 moveto
P$f
fill
0 setlinewidth
[] 0 setdash
0 0 0 setrgbcolor
newpath
516.0313 331.3574 moveto
P$o
517.0313 332.3262 moveto
P$p
521.7969 337.498 moveto
P$q
534.9375 336.0918 moveto
P$r
531.5938 334.5449 moveto
P$s
539.2031 330.9824 moveto
P$t
542.2031 330.9824 moveto
P$3
541.7031 333.5449 moveto
P$4
549 333.7324 moveto
P$h
555.6875 336.1387 moveto
P$u
565.3438 332.0293 moveto
P$j
568.0469 340.2793 moveto
P$k
566.6719 337.5918 moveto
P$l
576.0469 340.2793 moveto
P$k
574.6719 337.5918 moveto
P$l
586.3438 334.5449 moveto
P$9
591.0156 339.123 moveto
P$m
587.6719 337.5762 moveto
P$n
596.2031 330.9824 moveto
P$3
595.7031 333.5449 moveto
P$4
603.6875 336.1387 moveto
P$5
611.4531 336.3574 moveto
P$b
610.2813 336.8105 moveto
P$c
618.0781 333.5449 moveto
P$6
621.0469 340.2793 moveto
P$k
619.6719 337.5918 moveto
P$l
631.3438 334.5449 moveto
P$9
fill
1.5 setlinewidth
0.6588 0 0.2118 setrgbcolor
newpath
486 347.9375 moveto
147 0 rlineto
stroke
1.5 setlinewidth
0.6588 0 0.2118 setrgbcolor
newpath
486 355.9375 moveto
147 0 rlineto
stroke
0.9961 0.9961 0.8078 setrgbcolor
167 53.9375 574 394 simplerect
closepath eofill
1.5 setlinewidth
0.6588 0 0.2118 setrgbcolor
167 53.9375 574 394 simplerect
closepath stroke
0.7059 0.6549 0.898 setrgbcolor
newpath
589 412.9688 11 0 360 arc
closepath eofill
1.0 setlinewidth
0.6588 0 0.2118 setrgbcolor
newpath
589 412.9688 11 0 360 arc
closepath stroke
0 setlinewidth
[] 0 setdash
0 0 0 setrgbcolor
newpath
584.9219 408.7344 moveto
P$0
fill
0 setlinewidth
[] 0 setdash
0 0 0 setrgbcolor
newpath
639.5625 403.9355 moveto
P$1
642.1563 403.9355 moveto
P$2
644.7031 401.0137 moveto
P$3
644.2031 403.5762 moveto
P$4
652.1875 406.1699 moveto
P$5
658.5781 403.5762 moveto
P$6
664.2656 406.2637 moveto
P$7
665.2031 407.1074 moveto
P$8
671.8438 404.5762 moveto
P$9
677.2344 401.0137 moveto
P$a
681.9531 406.3887 moveto
P$b
680.7813 406.8418 moveto
P$c
689.9375 403.8262 moveto
P$d
696.2656 406.2637 moveto
P$7
697.2031 407.1074 moveto
P$8
701.8281 409.3105 moveto
P$e
699.25 409.3105 moveto
P$f
fill
0 setlinewidth
[] 0 setdash
0 0 0 setrgbcolor
newpath
610.2344 415.6387 moveto
P$v
611.7969 421.498 moveto
P$q
624.9375 420.0918 moveto
P$r
621.5938 418.5449 moveto
P$s
633 417.7324 moveto
P$h
639.4375 417.7949 moveto
P$d
645.3438 418.5449 moveto
P$9
647.2031 414.9824 moveto
P$3
646.7031 417.5449 moveto
P$4
653.9375 420.0918 moveto
P$r
650.5938 418.5449 moveto
P$s
661.7656 420.2324 moveto
P$7
662.7031 421.0762 moveto
P$8
672.3438 416.0293 moveto
P$j
675.0469 424.2793 moveto
P$k
673.6719 421.5918 moveto
P$l
683.0469 424.2793 moveto
P$k
681.6719 421.5918 moveto
P$l
693.3438 418.5449 moveto
P$9
698.0156 423.123 moveto
P$m
694.6719 421.5762 moveto
P$n
703.2031 414.9824 moveto
P$3
702.7031 417.5449 moveto
P$4
710.6875 420.1387 moveto
P$5
718.4531 420.3574 moveto
P$b
717.2813 420.8105 moveto
P$c
725.0781 417.5449 moveto
P$6
728.0469 424.2793 moveto
P$k
726.6719 421.5918 moveto
P$l
738.3438 418.5449 moveto
P$9
fill
1.5 setlinewidth
0.6588 0 0.2118 setrgbcolor
newpath
575 431.9375 moveto
165 0 rlineto
stroke
1.5 setlinewidth
0.6588 0 0.2118 setrgbcolor
newpath
575 439.9375 moveto
165 0 rlineto
stroke
0.9961 0.9961 0.8078 setrgbcolor
175 53.9375 305 310 simplerect
closepath eofill
1.5 setlinewidth
0.6588 0 0.2118 setrgbcolor
175 53.9375 305 310 simplerect
closepath stroke
0.7059 0.6549 0.898 setrgbcolor
newpath
320 328.9688 11 0 360 arc
closepath eofill
1.0 setlinewidth
0.6588 0 0.2118 setrgbcolor
newpath
320 328.9688 11 0 360 arc
closepath stroke
0 setlinewidth
[] 0 setdash
0 0 0 setrgbcolor
newpath
315.9219 324.7344 moveto
P$0
fill
0 setlinewidth
[] 0 setdash
0 0 0 setrgbcolor
newpath
374.5625 319.9355 moveto
P$1
377.1563 319.9355 moveto
P$2
379.7031 317.0137 moveto
P$3
379.2031 319.5762 moveto
P$4
387.1875 322.1699 moveto
P$5
393.5781 319.5762 moveto
P$6
399.2656 322.2637 moveto
P$7
400.2031 323.1074 moveto
P$8
406.8438 320.5762 moveto
P$9
412.2344 317.0137 moveto
P$a
416.9531 322.3887 moveto
P$b
415.7813 322.8418 moveto
P$c
424.9375 319.8262 moveto
P$d
431.2656 322.2637 moveto
P$7
432.2031 323.1074 moveto
P$8
436.8281 325.3105 moveto
P$e
434.25 325.3105 moveto
P$f
fill
0 setlinewidth
[] 0 setdash
0 0 0 setrgbcolor
newpath
337.0313 332.3262 moveto
P$w
339.2031 335.9043 moveto
P$x
347.7656 336.2324 moveto
P$7
348.7031 337.0762 moveto
P$8
355.9531 336.0605 moveto
P$y
352.6094 334.5449 moveto
P$z
360.2031 330.9824 moveto
P$t
363.2031 330.9824 moveto
P$3
362.7031 333.5449 moveto
P$4
370.4375 333.7949 moveto
P$d
377.4531 336.3574 moveto
P$b
376.2813 336.8105 moveto
P$c
384.0781 333.5449 moveto
P$6
386.2031 330.9824 moveto
P$3
385.7031 333.5449 moveto
P$4
390.0469 340.2793 moveto
P$k
388.6719 337.5918 moveto
P$l
401.6875 336.1387 moveto
P$5
411.3438 332.0293 moveto
P$j
414.0469 340.2793 moveto
P$k
412.6719 337.5918 moveto
P$l
422.0469 340.2793 moveto
P$k
420.6719 337.5918 moveto
P$l
432.3438 334.5449 moveto
P$9
437.0156 339.123 moveto
P$m
433.6719 337.5762 moveto
P$n
442.2031 330.9824 moveto
P$3
441.7031 333.5449 moveto
P$4
449.6875 336.1387 moveto
P$5
457.4531 336.3574 moveto
P$b
456.2813 336.8105 moveto
P$c
464.0781 333.5449 moveto
P$6
467.0469 340.2793 moveto
P$k
465.6719 337.5918 moveto
P$l
477.3438 334.5449 moveto
P$9
fill
1.5 setlinewidth
0.6588 0 0.2118 setrgbcolor
newpath
306 347.9375 moveto
173 0 rlineto
stroke
1.5 setlinewidth
0.6588 0 0.2118 setrgbcolor
newpath
306 355.9375 moveto
173 0 rlineto
stroke
0.9961 0.9961 0.8078 setrgbcolor
76 48 687.5 8 simplerect
closepath eofill
1.5 setlinewidth
0.6588 0 0.2118 setrgbcolor
76 48 687.5 8 simplerect
closepath stroke
0.6784 0.8196 0.698 setrgbcolor
newpath
702.5 24 11 0 360 arc
closepath eofill
1.0 setlinewidth
0.6588 0 0.2118 setrgbcolor
newpath
702.5 24 11 0 360 arc
closepath stroke
0 setlinewidth
[] 0 setdash
0 0 0 setrgbcolor
newpath
705.4688 29.6406 moveto
P$10
fill
0 setlinewidth
[] 0 setdash
0 0 0 setrgbcolor
newpath
716.9063 19.4043 moveto
P$11
731.1719 22.3418 moveto
P$12
731.1719 21.4355 moveto
P$13
740.4375 22.5918 moveto
P$14
741.5938 19.0293 moveto
P$15
754.25 24.6074 moveto
P$16
753.1719 24.2793 moveto
P$17
760.4375 22.5918 moveto
P$14
fill
1.5 setlinewidth
0.6588 0 0.2118 setrgbcolor
newpath
688.5 40 moveto
74 0 rlineto
stroke
1.5 setlinewidth
0.6588 0 0.2118 setrgbcolor
newpath
688.5 48 moveto
74 0 rlineto
stroke
0.9961 0.9961 0.8078 setrgbcolor
85 48 671 531.5 simplerect
closepath eofill
1.5 setlinewidth
0.6588 0 0.2118 setrgbcolor
85 48 671 531.5 simplerect
closepath stroke
0.6784 0.8196 0.698 setrgbcolor
newpath
686 547.5 11 0 360 arc
closepath eofill
1.0 setlinewidth
0.6588 0 0.2118 setrgbcolor
newpath
686 547.5 11 0 360 arc
closepath stroke
0 setlinewidth
[] 0 setdash
0 0 0 setrgbcolor
newpath
688.9688 553.1406 moveto
P$10
fill
0 setlinewidth
[] 0 setdash
0 0 0 setrgbcolor
newpath
705.3281 547.5449 moveto
P$18
702.3594 543.873 moveto
P$19
714.75 548.1074 moveto
P$16
713.6719 547.7793 moveto
P$17
721.8594 545.3418 moveto
P$1a
729.75 548.1074 moveto
P$16
728.6719 547.7793 moveto
P$17
732.125 545.0918 moveto
P$1b
732.125 542.5293 moveto
P$1c
734.3594 545.0918 moveto
P$1d
746.75 548.1074 moveto
P$16
745.6719 547.7793 moveto
P$17
752.9375 546.0918 moveto
P$14
fill
1.5 setlinewidth
0.6588 0 0.2118 setrgbcolor
newpath
672 563.5 moveto
83 0 rlineto
stroke
1.5 setlinewidth
0.6588 0 0.2118 setrgbcolor
newpath
672 571.5 moveto
83 0 rlineto
stroke
0.9961 0.9961 0.8078 setrgbcolor
148 48 485.5 117 simplerect
closepath eofill
1.5 setlinewidth
0.6588 0 0.2118 setrgbcolor
148 48 485.5 117 simplerect
closepath stroke
0.6784 0.8196 0.698 setrgbcolor
newpath
500.5 133 11 0 360 arc
closepath eofill
1.0 setlinewidth
0.6588 0 0.2118 setrgbcolor
newpath
500.5 133 11 0 360 arc
closepath stroke
0 setlinewidth
[] 0 setdash
0 0 0 setrgbcolor
newpath
503.4688 138.6406 moveto
P$10
fill
0 setlinewidth
[] 0 setdash
0 0 0 setrgbcolor
newpath
522.2344 129.0762 moveto
P$1e
526.1719 131.3418 moveto
P$12
526.1719 130.4355 moveto
P$13
537.0938 133.1855 moveto
P$1f
543.8125 130.7793 moveto
P$1g
546.5156 134.5605 moveto
P$1h
549.2344 130.4355 moveto
P$1i
554.625 128.0293 moveto
P$1j
564.2344 129.0762 moveto
P$1e
568.1719 131.3418 moveto
P$12
568.1719 130.4355 moveto
P$13
576.1719 131.3418 moveto
P$12
576.1719 130.4355 moveto
P$13
585.4375 131.5918 moveto
P$14
590.9531 131.5918 moveto
P$1k
587.2813 133.873 moveto
P$1l
594.625 130.5918 moveto
P$1b
594.625 128.0293 moveto
P$1c
603.0938 133.1855 moveto
P$1f
608.6094 133.8574 moveto
P$1m
610.7656 133.4043 moveto
P$1n
614.7031 128.7324 moveto
P$1o
621.1719 131.3418 moveto
P$12
621.1719 130.4355 moveto
P$13
630.4375 131.5918 moveto
P$14
fill
1.5 setlinewidth
0.6588 0 0.2118 setrgbcolor
newpath
486.5 149 moveto
146 0 rlineto
stroke
1.5 setlinewidth
0.6588 0 0.2118 setrgbcolor
newpath
486.5 157 moveto
146 0 rlineto
stroke
0.9961 0.9961 0.8078 setrgbcolor
116 48 178.5 397 simplerect
closepath eofill
1.5 setlinewidth
0.6588 0 0.2118 setrgbcolor
116 48 178.5 397 simplerect
closepath stroke
0.6784 0.8196 0.698 setrgbcolor
newpath
193.5 413 11 0 360 arc
closepath eofill
1.0 setlinewidth
0.6588 0 0.2118 setrgbcolor
newpath
193.5 413 11 0 360 arc
closepath stroke
0 setlinewidth
[] 0 setdash
0 0 0 setrgbcolor
newpath
196.4688 418.6406 moveto
P$10
fill
0 setlinewidth
[] 0 setdash
0 0 0 setrgbcolor
newpath
207.4688 408.4043 moveto
P$1p
218.6094 413.8574 moveto
P$1m
220.7656 413.4043 moveto
P$1n
227.8125 410.7793 moveto
P$1g
230.5938 408.0293 moveto
P$15
237.6719 408.4043 moveto
P$1q
250.6094 413.8574 moveto
P$1m
252.7656 413.4043 moveto
P$1n
261.0938 413.1855 moveto
P$1f
266.6094 413.8574 moveto
P$1m
268.7656 413.4043 moveto
P$1n
275.9531 413.7949 moveto
P$1r
277.0313 416.3418 moveto
P$1s
285.25 413.6074 moveto
P$16
284.1719 413.2793 moveto
P$17
291.4375 411.5918 moveto
P$14
fill
1.5 setlinewidth
0.6588 0 0.2118 setrgbcolor
newpath
179.5 429 moveto
114 0 rlineto
stroke
1.5 setlinewidth
0.6588 0 0.2118 setrgbcolor
newpath
179.5 437 moveto
114 0 rlineto
stroke
0.9961 0.9961 0.8078 setrgbcolor
88 48 278.5 788 simplerect
closepath eofill
1.5 setlinewidth
0.6588 0 0.2118 setrgbcolor
88 48 278.5 788 simplerect
closepath stroke
0.6784 0.8196 0.698 setrgbcolor
newpath
293.5 804 11 0 360 arc
closepath eofill
1.0 setlinewidth
0.6588 0 0.2118 setrgbcolor
newpath
293.5 804 11 0 360 arc
closepath stroke
0 setlinewidth
[] 0 setdash
0 0 0 setrgbcolor
newpath
296.4688 809.6406 moveto
P$10
fill
0 setlinewidth
[] 0 setdash
0 0 0 setrgbcolor
newpath
309.8594 800.373 moveto
P$1t
308.6719 799.4043 moveto
P$1u
322.25 804.6074 moveto
P$16
321.1719 804.2793 moveto
P$17
328.4375 802.5918 moveto
P$14
333.8125 801.7793 moveto
P$1g
336.625 801.5918 moveto
P$1b
336.625 799.0293 moveto
P$1c
343.8125 801.7793 moveto
P$1g
347.7031 799.7324 moveto
P$1o
357.25 804.6074 moveto
P$16
356.1719 804.2793 moveto
P$17
363.4375 802.5918 moveto
P$14
fill
1.5 setlinewidth
0.6588 0 0.2118 setrgbcolor
newpath
279.5 820 moveto
86 0 rlineto
stroke
1.5 setlinewidth
0.6588 0 0.2118 setrgbcolor
newpath
279.5 828 moveto
86 0 rlineto
stroke
0.9961 0.9961 0.8078 setrgbcolor
61 48 351 531.5 simplerect
closepath eofill
1.5 setlinewidth
0.6588 0 0.2118 setrgbcolor
61 48 351 531.5 simplerect
closepath stroke
0.6784 0.8196 0.698 setrgbcolor
newpath
366 547.5 11 0 360 arc
closepath eofill
1.0 setlinewidth
0.6588 0 0.2118 setrgbcolor
newpath
366 547.5 11 0 360 arc
closepath stroke
0 setlinewidth
[] 0 setdash
0 0 0 setrgbcolor
newpath
368.9688 553.1406 moveto
P$10
fill
0 setlinewidth
[] 0 setdash
0 0 0 setrgbcolor
newpath
379.9688 542.9043 moveto
P$1p
391.1094 548.3574 moveto
P$1m
393.2656 547.9043 moveto
P$1n
400.3125 545.2793 moveto
P$1g
403.0938 542.5293 moveto
P$15
fill
1.5 setlinewidth
0.6588 0 0.2118 setrgbcolor
newpath
352 563.5 moveto
59 0 rlineto
stroke
1.5 setlinewidth
0.6588 0 0.2118 setrgbcolor
newpath
352 571.5 moveto
59 0 rlineto
stroke
0.9961 0.9961 0.8078 setrgbcolor
91 48 140 663 simplerect
closepath eofill
1.5 setlinewidth
0.6588 0 0.2118 setrgbcolor
91 48 140 663 simplerect
closepath stroke
0.6784 0.8196 0.698 setrgbcolor
newpath
155 679 11 0 360 arc
closepath eofill
1.0 setlinewidth
0.6588 0 0.2118 setrgbcolor
newpath
155 679 11 0 360 arc
closepath stroke
0 setlinewidth
[] 0 setdash
0 0 0 setrgbcolor
newpath
157.9688 684.6406 moveto
P$10
fill
0 setlinewidth
[] 0 setdash
0 0 0 setrgbcolor
newpath
170.1719 674.4043 moveto
P$1v
176.125 676.5918 moveto
P$1b
176.125 674.0293 moveto
P$1c
184.5938 679.1855 moveto
P$1f
192.75 679.6074 moveto
P$16
191.6719 679.2793 moveto
P$17
198.1094 679.8574 moveto
P$1m
200.2656 679.4043 moveto
P$1n
206.9375 677.5918 moveto
P$14
208.125 676.5918 moveto
P$1b
208.125 674.0293 moveto
P$1c
210.6563 676.5918 moveto
P$1w
221.75 679.6074 moveto
P$16
220.6719 679.2793 moveto
P$17
227.9375 677.5918 moveto
P$14
fill
1.5 setlinewidth
0.6588 0 0.2118 setrgbcolor
newpath
141 695 moveto
89 0 rlineto
stroke
1.5 setlinewidth
0.6588 0 0.2118 setrgbcolor
newpath
141 703 moveto
89 0 rlineto
stroke
0.9961 0.9961 0.8078 setrgbcolor
99 48 6 663 simplerect
closepath eofill
1.5 setlinewidth
0.6588 0 0.2118 setrgbcolor
99 48 6 663 simplerect
closepath stroke
0.6784 0.8196 0.698 setrgbcolor
newpath
21 679 11 0 360 arc
closepath eofill
1.0 setlinewidth
0.6588 0 0.2118 setrgbcolor
newpath
21 679 11 0 360 arc
closepath stroke
0 setlinewidth
[] 0 setdash
0 0 0 setrgbcolor
newpath
23.9688 684.6406 moveto
P$10
fill
0 setlinewidth
[] 0 setdash
0 0 0 setrgbcolor
newpath
34.9688 674.4043 moveto
P$1p
46.1094 679.8574 moveto
P$1m
48.2656 679.4043 moveto
P$1n
55.3125 676.7793 moveto
P$1g
58.0938 674.0293 moveto
P$15
66.3594 675.373 moveto
P$1t
65.1719 674.4043 moveto
P$1u
73.125 674.0293 moveto
P$1j
76.0156 680.5605 moveto
P$1h
78.7344 676.4355 moveto
P$1i
88.4531 679.7949 moveto
P$1r
89.5313 682.3418 moveto
P$1s
92.125 676.5918 moveto
P$1b
92.125 674.0293 moveto
P$1c
100.5938 679.1855 moveto
P$1f
fill
1.5 setlinewidth
0.6588 0 0.2118 setrgbcolor
newpath
7 695 moveto
97 0 rlineto
stroke
1.5 setlinewidth
0.6588 0 0.2118 setrgbcolor
newpath
7 703 moveto
97 0 rlineto
stroke
0.9961 0.9961 0.8078 setrgbcolor
112 48 266.5 663 simplerect
closepath eofill
1.5 setlinewidth
0.6588 0 0.2118 setrgbcolor
112 48 266.5 663 simplerect
closepath stroke
0.6784 0.8196 0.698 setrgbcolor
newpath
281.5 679 11 0 360 arc
closepath eofill
1.0 setlinewidth
0.6588 0 0.2118 setrgbcolor
newpath
281.5 679 11 0 360 arc
closepath stroke
0 setlinewidth
[] 0 setdash
0 0 0 setrgbcolor
newpath
284.4688 684.6406 moveto
P$10
fill
0 setlinewidth
[] 0 setdash
0 0 0 setrgbcolor
newpath
300.2344 675.2012 moveto
P$1x
300.2344 674.248 moveto
P$1y
305.5156 680.5605 moveto
P$1h
308.2344 676.4355 moveto
P$1i
314.7031 674.7324 moveto
P$1o
319.6719 682.1699 moveto
P$1z
323.3438 679.873 moveto
P$20
326.5156 680.5605 moveto
P$1h
329.2344 676.4355 moveto
P$1i
335.7031 674.7324 moveto
P$1o
340.8594 678.9824 moveto
P$21
340.8594 675.373 moveto
P$22
339.6719 674.4043 moveto
P$23
347.5156 680.5605 moveto
P$1h
350.2344 676.4355 moveto
P$1i
358.9531 674.0293 moveto
P$24
362.9531 674.0293 moveto
P$24
369.25 679.6074 moveto
P$16
368.1719 679.2793 moveto
P$17
375.4375 677.5918 moveto
P$14
fill
1.5 setlinewidth
0.6588 0 0.2118 setrgbcolor
newpath
267.5 695 moveto
110 0 rlineto
stroke
1.5 setlinewidth
0.6588 0 0.2118 setrgbcolor
newpath
267.5 703 moveto
110 0 rlineto
stroke
0.9961 0.9961 0.8078 setrgbcolor
145 48 448 663 simplerect
closepath eofill
1.5 setlinewidth
0.6588 0 0.2118 setrgbcolor
145 48 448 663 simplerect
closepath stroke
0.6784 0.8196 0.698 setrgbcolor
newpath
463 679 11 0 360 arc
closepath eofill
1.0 setlinewidth
0.6588 0 0.2118 setrgbcolor
newpath
463 679 11 0 360 arc
closepath stroke
0 setlinewidth
[] 0 setdash
0 0 0 setrgbcolor
newpath
465.9688 684.6406 moveto
P$10
fill
0 setlinewidth
[] 0 setdash
0 0 0 setrgbcolor
newpath
483.4219 674.6855 moveto
P$25
487.2031 674.7324 moveto
P$1o
494.9375 677.5918 moveto
P$14
501.75 679.6074 moveto
P$16
500.6719 679.2793 moveto
P$17
507.1094 679.8574 moveto
P$1m
509.2656 679.4043 moveto
P$1n
517.2344 677.8574 moveto
P$26
524.3594 675.373 moveto
P$27
523.1719 674.4043 moveto
P$28
532.125 676.5918 moveto
P$1b
532.125 674.0293 moveto
P$1c
539.3125 676.7793 moveto
P$1g
543.1719 682.1699 moveto
P$1z
546.8438 679.873 moveto
P$20
553.1094 679.8574 moveto
P$1m
555.2656 679.4043 moveto
P$1n
559.2031 674.7324 moveto
P$1o
567.8594 676.8418 moveto
P$1a
575.5938 679.1855 moveto
P$29
583.75 679.6074 moveto
P$16
582.6719 679.2793 moveto
P$17
589.9375 677.5918 moveto
P$14
fill
1.5 setlinewidth
0.6588 0 0.2118 setrgbcolor
newpath
449 695 moveto
143 0 rlineto
stroke
1.5 setlinewidth
0.6588 0 0.2118 setrgbcolor
newpath
449 703 moveto
143 0 rlineto
stroke
0.9961 0.9961 0.8078 setrgbcolor
106 48 662.5 663 simplerect
closepath eofill
1.5 setlinewidth
0.6588 0 0.2118 setrgbcolor
106 48 662.5 663 simplerect
closepath stroke
0.6784 0.8196 0.698 setrgbcolor
newpath
677.5 679 11 0 360 arc
closepath eofill
1.0 setlinewidth
0.6588 0 0.2118 setrgbcolor
newpath
677.5 679 11 0 360 arc
closepath stroke
0 setlinewidth
[] 0 setdash
0 0 0 setrgbcolor
newpath
680.4688 684.6406 moveto
P$10
fill
0 setlinewidth
[] 0 setdash
0 0 0 setrgbcolor
newpath
692.6719 674.4043 moveto
P$1v
697.9063 674.4043 moveto
P$11
709.6719 674.4043 moveto
P$1q
718.4688 674.4043 moveto
P$1p
730.4375 677.5918 moveto
P$14
734.6094 679.8574 moveto
P$1m
736.7656 679.4043 moveto
P$1n
744.3594 676.8418 moveto
P$1a
746.5938 674.0293 moveto
P$15
759.25 679.6074 moveto
P$16
758.1719 679.2793 moveto
P$17
765.4375 677.5918 moveto
P$14
fill
1.5 setlinewidth
0.6588 0 0.2118 setrgbcolor
newpath
663.5 695 moveto
104 0 rlineto
stroke
1.5 setlinewidth
0.6588 0 0.2118 setrgbcolor
newpath
663.5 703 moveto
104 0 rlineto
stroke
0.9961 0.9961 0.8078 setrgbcolor
192 60.8047 89.5 525 simplerect
closepath eofill
1.5 setlinewidth
0.6588 0 0.2118 setrgbcolor
192 60.8047 89.5 525 simplerect
closepath stroke
0.7059 0.6549 0.898 setrgbcolor
newpath
129.7 541 11 0 360 arc
closepath eofill
1.0 setlinewidth
0.6588 0 0.2118 setrgbcolor
newpath
129.7 541 11 0 360 arc
closepath stroke
0 setlinewidth
[] 0 setdash
0 0 0 setrgbcolor
newpath
125.6219 536.7656 moveto
P$0
fill
0 setlinewidth
[] 0 setdash
0 0 0 setrgbcolor
newpath
152.3313 537.373 moveto
P$w
154.5031 540.9512 moveto
P$x
163.0656 541.2793 moveto
P$7
164.0031 542.123 moveto
P$8
171.7375 538.8418 moveto
P$d
175.3469 545.3262 moveto
P$k
173.9719 542.6387 moveto
P$l
185.6438 539.5918 moveto
P$9
190.3156 544.1699 moveto
P$m
186.9719 542.623 moveto
P$n
195.3313 536.4043 moveto
P$o
196.3313 537.373 moveto
P$p
205.6438 539.5918 moveto
P$9
208.3469 545.3262 moveto
P$k
206.9719 542.6387 moveto
P$l
219.7375 538.8418 moveto
P$d
226.0656 541.2793 moveto
P$7
227.0031 542.123 moveto
P$8
234.3 538.7793 moveto
P$h
240.3 538.7793 moveto
P$h
243.3469 545.3262 moveto
P$k
241.9719 542.6387 moveto
P$l
253.6438 539.5918 moveto
P$9
fill
1.5 setlinewidth
0.6588 0 0.2118 setrgbcolor
newpath
90.5 557 moveto
190 0 rlineto
stroke
1.5 setlinewidth
0.6588 0 0.2118 setrgbcolor
newpath
90.5 565 moveto
190 0 rlineto
stroke
0 setlinewidth
[] 0 setdash
0 0 0 setrgbcolor
newpath
97.6719 572.0854 moveto
P$2a
96.5781 571.1948 moveto
P$2b
107.0156 574.1167 moveto
P$2c
110.875 573.8823 moveto
P$2d
110.875 573.0542 moveto
P$2e
119.8594 573.4292 moveto
P$2f
126.6875 575.9604 moveto
P$2g
125.6875 575.6636 moveto
P$2h
132.375 573.3667 moveto
P$2i
139.375 573.3667 moveto
P$2i
146.375 575.4448 moveto
P$2j
143.6719 572.0854 moveto
P$2k
154.6875 575.9604 moveto
P$2g
153.6875 575.6636 moveto
P$2h
160.8594 573.4292 moveto
P$2f
164.875 573.8823 moveto
P$2d
164.875 573.0542 moveto
P$2e
173.0156 574.1167 moveto
P$2c
178.5 574.1011 moveto
P$2l
175.125 576.2104 moveto
P$2m
183.9063 570.8667 moveto
P$2n
189.0156 574.1167 moveto
P$2c
198.6719 572.5073 moveto
P$2o
204.375 575.4448 moveto
P$2j
201.6719 572.0854 moveto
P$2k
212.6875 575.9604 moveto
P$2g
211.6875 575.6636 moveto
P$2h
218.8594 573.4292 moveto
P$2f
222.875 573.8823 moveto
P$2d
222.875 573.0542 moveto
P$2e
231.0156 574.1167 moveto
P$2c
236.5 574.1011 moveto
P$2l
233.125 576.2104 moveto
P$2m
239.375 570.8667 moveto
P$2p
252.6875 575.9604 moveto
P$2g
251.6875 575.6636 moveto
P$2h
258.0156 574.1167 moveto
P$2c
263.0156 574.1167 moveto
P$2c
266.875 573.8823 moveto
P$2d
266.875 573.0542 moveto
P$2e
275.0156 574.1167 moveto
P$2c
fill
1.0 setlinewidth
0.6588 0 0.2118 setrgbcolor
newpath
760.452 65.797 moveto
777.55 85.424 794.5 111.954 794.5 140 curveto
794.5 140 794.5 140 794.5 422 curveto
794.5 460.151 769.752 496.609 747.615 521.59 curveto
stroke
0.6588 0 0.2118 setrgbcolor
newpath
738.685 531.236 moveto
9.0493 -3.8872 rlineto
-5.6527 0.218 rlineto
-0.218 -5.6527 rlineto
-3.1786 9.3218 rlineto
738.685 531.236 lineto
closepath eofill
1.0 setlinewidth
0.6588 0 0.2118 setrgbcolor
newpath
738.685 531.236 moveto
9.0493 -3.8872 rlineto
-5.6527 0.218 rlineto
-0.218 -5.6527 rlineto
-3.1786 9.3218 rlineto
738.685 531.236 lineto
closepath stroke
1.0 setlinewidth
0.6588 0 0.2118 setrgbcolor
newpath
742.0816 527.5668 moveto
5.4344 -5.8708 rlineto
stroke
0.6588 0 0.2118 setrgbcolor
newpath
751.586 56.191 moveto
1.1296 7.1221 rlineto
7.0087 1.6966 rlineto
-1.1296 -7.1221 rlineto
-7.0087 -1.6966 rlineto
751.586 56.191 lineto
closepath eofill
1.0 setlinewidth
0.6588 0 0.2118 setrgbcolor
newpath
751.586 56.191 moveto
1.1296 7.1221 rlineto
7.0087 1.6966 rlineto
-1.1296 -7.1221 rlineto
-7.0087 -1.6966 rlineto
751.586 56.191 lineto
closepath stroke
0 setlinewidth
[] 0 setdash
0 0 0 setrgbcolor
newpath
737.4582 519.4985 moveto
P$2q
fill
1.0 setlinewidth
0.6588 0 0.2118 setrgbcolor
newpath
678.234 63.467 moveto
655.725 77.976 628.882 95.278 606.418 109.758 curveto
stroke
0.6588 0 0.2118 setrgbcolor
newpath
595.449 116.828 moveto
9.7319 -1.5136 rlineto
-5.5292 -1.1951 rlineto
1.1951 -5.5292 rlineto
-5.3978 8.2379 rlineto
595.449 116.828 lineto
closepath eofill
1.0 setlinewidth
0.6588 0 0.2118 setrgbcolor
newpath
595.449 116.828 moveto
9.7319 -1.5136 rlineto
-5.5292 -1.1951 rlineto
1.1951 -5.5292 rlineto
-5.3978 8.2379 rlineto
595.449 116.828 lineto
closepath stroke
1.0 setlinewidth
0.6588 0 0.2118 setrgbcolor
newpath
599.6517 114.1192 moveto
6.7243 -4.3347 rlineto
stroke
0.6588 0 0.2118 setrgbcolor
newpath
689.48 56.217 moveto
-7.2102 -0.1116 rlineto
-2.8762 6.6127 rlineto
7.2102 0.1116 rlineto
2.8762 -6.6127 rlineto
689.48 56.217 lineto
closepath eofill
1.0 setlinewidth
0.6588 0 0.2118 setrgbcolor
newpath
689.48 56.217 moveto
-7.2102 -0.1116 rlineto
-2.8762 6.6127 rlineto
7.2102 0.1116 rlineto
2.8762 -6.6127 rlineto
689.48 56.217 lineto
closepath stroke
0 setlinewidth
[] 0 setdash
0 0 0 setrgbcolor
newpath
597.2453 104.7178 moveto
P$2q
fill
1.0 setlinewidth
0.6588 0 0.2118 setrgbcolor
newpath
674.126 38.187 moveto
576.044 50.988 362.303 93.378 254.5 226 curveto
218.289 270.548 222.18 341.299 228.917 383.928 curveto
stroke
0.6588 0 0.2118 setrgbcolor
newpath
231.206 396.97 moveto
2.3841 -9.556 rlineto
-3.2484 4.6312 rlineto
-4.6312 -3.2484 rlineto
5.4955 8.1731 rlineto
231.206 396.97 lineto
closepath eofill
1.0 setlinewidth
0.6588 0 0.2118 setrgbcolor
newpath
231.206 396.97 moveto
2.3841 -9.556 rlineto
-3.2484 4.6312 rlineto
-4.6312 -3.2484 rlineto
5.4955 8.1731 rlineto
231.206 396.97 lineto
closepath stroke
1.0 setlinewidth
0.6588 0 0.2118 setrgbcolor
newpath
230.3417 392.0453 moveto
-1.3832 -7.8798 rlineto
stroke
0.6588 0 0.2118 setrgbcolor
newpath
687.175 36.57 moveto
-6.4463 -3.2318 rlineto
-5.4626 4.7074 rlineto
6.4463 3.2318 rlineto
5.4626 -4.7074 rlineto
687.175 36.57 lineto
closepath eofill
1.0 setlinewidth
0.6588 0 0.2118 setrgbcolor
newpath
687.175 36.57 moveto
-6.4463 -3.2318 rlineto
-5.4626 4.7074 rlineto
6.4463 3.2318 rlineto
5.4626 -4.7074 rlineto
687.175 36.57 lineto
closepath stroke
0 setlinewidth
[] 0 setdash
0 0 0 setrgbcolor
newpath
222.4338 384.8962 moveto
P$2q
fill
1.0 setlinewidth
0.6588 0 0.2118 setrgbcolor
newpath
776.105 48.631 moveto
816.195 64.528 865.5 93.525 865.5 140 curveto
865.5 140 865.5 140 865.5 688 curveto
865.5 786.6891 520.013 806.1977 380.199 810.0519 curveto
stroke
0.6588 0 0.2118 setrgbcolor
newpath
366.936 810.3872 moveto
9.0982 3.7712 rlineto
-4.0998 -3.8976 rlineto
3.8976 -4.0998 rlineto
-8.896 4.2262 rlineto
366.936 810.3872 lineto
closepath eofill
1.0 setlinewidth
0.6588 0 0.2118 setrgbcolor
newpath
366.936 810.3872 moveto
9.0982 3.7712 rlineto
-4.0998 -3.8976 rlineto
3.8976 -4.0998 rlineto
-8.896 4.2262 rlineto
366.936 810.3872 lineto
closepath stroke
1.0 setlinewidth
0.6588 0 0.2118 setrgbcolor
newpath
371.9344 810.2608 moveto
7.9976 -0.2023 rlineto
stroke
0.6588 0 0.2118 setrgbcolor
newpath
763.756 44.02 moveto
4.2212 5.8465 rlineto
7.0203 -1.6479 rlineto
-4.2212 -5.8465 rlineto
-7.0203 1.6479 rlineto
763.756 44.02 lineto
closepath eofill
1.0 setlinewidth
0.6588 0 0.2118 setrgbcolor
newpath
763.756 44.02 moveto
4.2212 5.8465 rlineto
7.0203 -1.6479 rlineto
-4.2212 -5.8465 rlineto
-7.0203 1.6479 rlineto
763.756 44.02 lineto
closepath stroke
0 setlinewidth
[] 0 setdash
0 0 0 setrgbcolor
newpath
375.9621 804.9907 moveto
P$2q
fill
1.0 setlinewidth
0.6588 0 0.2118 setrgbcolor
[9 9] 0 setdash
newpath
512.852 165.014 moveto
494.083 174.298 472.248 185.129 452.5 195 curveto
438.493 202.002 423.527 209.523 409.221 216.731 curveto
stroke
[] 0 setdash
1.0 setlinewidth
0.6588 0 0.2118 setrgbcolor
newpath
411.941 223.199 moveto
-21.009 2.758 rlineto
14.704 -15.257 rlineto
6.305 12.499 rlineto
411.941 223.199 lineto
closepath stroke
1.0 setlinewidth
0.6588 0 0.2118 setrgbcolor
[9 9] 0 setdash
newpath
559.5 165.016 moveto
559.5 195.601 559.5 250.348 559.5 289.661 curveto
stroke
[] 0 setdash
1.0 setlinewidth
0.6588 0 0.2118 setrgbcolor
newpath
566.5 289.928 moveto
-7 20 rlineto
-7 -20 rlineto
14 0 rlineto
566.5 289.928 lineto
closepath stroke
1.0 setlinewidth
0.6588 0 0.2118 setrgbcolor
[9 9] 0 setdash
newpath
571.123 165.108 moveto
575.699 174.358 580.941 185.139 585.5 195 curveto
608.89 245.587 618.83 256.819 635.5 310 curveto
641.96 330.608 646.951 354.002 650.534 373.902 curveto
stroke
[] 0 setdash
1.0 setlinewidth
0.6588 0 0.2118 setrgbcolor
newpath
657.471 372.945 moveto
-3.599 20.882 rlineto
-10.208 -18.569 rlineto
13.807 -2.313 rlineto
657.471 372.945 lineto
closepath stroke
1.0 setlinewidth
0.6588 0 0.2118 setrgbcolor
[9 9] 0 setdash
newpath
539.687 165.016 moveto
512.198 196.95 462.036 255.222 427.995 294.767 curveto
stroke
[] 0 setdash
1.0 setlinewidth
0.6588 0 0.2118 setrgbcolor
newpath
433.297 299.337 moveto
-18.353 10.591 rlineto
7.743 -19.725 rlineto
10.61 9.134 rlineto
433.297 299.337 lineto
closepath stroke
1.0 setlinewidth
0.6588 0 0.2118 setrgbcolor
[9 9] 0 setdash
newpath
670.543 452.86 moveto
680.698 476.888 694.568 509.706 703.769 531.475 curveto
stroke
[] 0 setdash
0.6588 0 0.2118 setrgbcolor
newpath
668.564 448.178 moveto
-0.1797 9.8472 rlineto
2.1267 -5.2419 rlineto
5.2419 2.1267 rlineto
-7.1889 -6.732 rlineto
668.564 448.178 lineto
closepath eofill
1.0 setlinewidth
0.6588 0 0.2118 setrgbcolor
newpath
668.564 448.178 moveto
-0.1797 9.8472 rlineto
2.1267 -5.2419 rlineto
5.2419 2.1267 rlineto
-7.1889 -6.732 rlineto
668.564 448.178 lineto
closepath stroke
0 setlinewidth
[] 0 setdash
0 0 0 setrgbcolor
newpath
688.6094 488.2544 moveto
P$2r
691.5469 483.7856 moveto
P$1i
701.25 484.1606 moveto
P$2s
709.8125 487.2231 moveto
P$2t
708.6406 486.8794 moveto
P$2u
716.25 484.1606 moveto
P$2s
fill
1.0 setlinewidth
0.6588 0 0.2118 setrgbcolor
[9 9] 0 setdash
newpath
282.152 282.966 moveto
271.907 290.49 262.336 299.495 255.5 310 curveto
238.481 336.152 235.354 372.917 235.377 396.602 curveto
stroke
[] 0 setdash
0.6588 0 0.2118 setrgbcolor
newpath
286.263 280.047 moveto
-9.6543 1.948 rlineto
5.5771 0.9463 rlineto
-0.9463 5.5771 rlineto
5.0234 -8.4714 rlineto
286.263 280.047 lineto
closepath eofill
1.0 setlinewidth
0.6588 0 0.2118 setrgbcolor
newpath
286.263 280.047 moveto
-9.6543 1.948 rlineto
5.5771 0.9463 rlineto
-0.9463 5.5771 rlineto
5.0234 -8.4714 rlineto
286.263 280.047 lineto
closepath stroke
0 setlinewidth
[] 0 setdash
0 0 0 setrgbcolor
newpath
257.6094 338.7544 moveto
P$2r
260.5469 334.2856 moveto
P$1i
270.25 334.6606 moveto
P$2s
278.8125 337.7231 moveto
P$2t
277.6406 337.3794 moveto
P$2u
285.25 334.6606 moveto
P$2s
fill
1.0 setlinewidth
0.6588 0 0.2118 setrgbcolor
[9 9] 0 setdash
newpath
412.139 555.5 moveto
470.104 555.5 596.202 555.5 665.499 555.5 curveto
stroke
[] 0 setdash
0.6588 0 0.2118 setrgbcolor
newpath
670.798 555.5 moveto
-9 -4 rlineto
4 4 rlineto
-4 4 rlineto
9 -4 rlineto
670.798 555.5 lineto
closepath eofill
1.0 setlinewidth
0.6588 0 0.2118 setrgbcolor
newpath
670.798 555.5 moveto
-9 -4 rlineto
4 4 rlineto
-4 4 rlineto
9 -4 rlineto
670.798 555.5 lineto
closepath stroke
0 setlinewidth
[] 0 setdash
0 0 0 setrgbcolor
newpath
527.6094 545.7544 moveto
P$2r
530.5469 541.2856 moveto
P$1i
540.25 541.6606 moveto
P$2s
548.8125 544.7231 moveto
P$2t
547.6406 544.3794 moveto
P$2u
555.25 541.6606 moveto
P$2s
fill
1.0 setlinewidth
0.6588 0 0.2118 setrgbcolor
[9 9] 0 setdash
newpath
417.539 561.912 moveto
446.579 566.739 488.521 572.944 525.5 575.5 curveto
575.436 578.951 632.592 571.193 670.646 564.356 curveto
stroke
[] 0 setdash
0.6588 0 0.2118 setrgbcolor
newpath
412.271 561.028 moveto
8.2143 5.4337 rlineto
-3.2832 -4.6066 rlineto
4.6066 -3.2832 rlineto
-9.5377 2.4561 rlineto
412.271 561.028 lineto
closepath eofill
1.0 setlinewidth
0.6588 0 0.2118 setrgbcolor
newpath
412.271 561.028 moveto
8.2143 5.4337 rlineto
-3.2832 -4.6066 rlineto
4.6066 -3.2832 rlineto
-9.5377 2.4561 rlineto
412.271 561.028 lineto
closepath stroke
0 setlinewidth
[] 0 setdash
0 0 0 setrgbcolor
newpath
527.6094 568.7544 moveto
P$2r
530.5469 564.2856 moveto
P$1i
540.25 564.6606 moveto
P$2s
548.8125 567.7231 moveto
P$2t
547.6406 567.3794 moveto
P$2u
555.25 564.6606 moveto
P$2s
fill
1.0 setlinewidth
0.6588 0 0.2118 setrgbcolor
newpath
271.621 454.093 moveto
294.226 474.75 323.505 501.504 346.154 522.201 curveto
stroke
0.6588 0 0.2118 setrgbcolor
newpath
356.046 531.24 moveto
-3.9462 -9.0237 rlineto
0.255 5.6511 rlineto
-5.6511 0.255 rlineto
9.3424 3.1176 rlineto
356.046 531.24 lineto
closepath eofill
1.0 setlinewidth
0.6588 0 0.2118 setrgbcolor
newpath
356.046 531.24 moveto
-3.9462 -9.0237 rlineto
0.255 5.6511 rlineto
-5.6511 0.255 rlineto
9.3424 3.1176 rlineto
356.046 531.24 lineto
closepath stroke
1.0 setlinewidth
0.6588 0 0.2118 setrgbcolor
newpath
352.3547 527.8674 moveto
-5.9057 -5.3964 rlineto
stroke
0.6588 0 0.2118 setrgbcolor
newpath
261.757 445.08 moveto
1.7315 7.0001 rlineto
7.1276 1.0941 rlineto
-1.7315 -7.0001 rlineto
-7.1276 -1.0941 rlineto
261.757 445.08 lineto
closepath eofill
1.0 setlinewidth
0.6588 0 0.2118 setrgbcolor
newpath
261.757 445.08 moveto
1.7315 7.0001 rlineto
7.1276 1.0941 rlineto
-1.7315 -7.0001 rlineto
-7.1276 -1.0941 rlineto
261.757 445.08 lineto
closepath stroke
0 setlinewidth
[] 0 setdash
0 0 0 setrgbcolor
newpath
328.1635 511.941 moveto
P$2v
328.1635 510.9253 moveto
P$2w
333.4291 518.9722 moveto
P$2x
337.4291 518.9722 moveto
P$2x
346.1478 512.6597 moveto
P$2y
fill
1.0 setlinewidth
0.6588 0 0.2118 setrgbcolor
[9 9] 0 setdash
newpath
390.91 369.294 moveto
388.678 413.224 384.667 492.17 382.681 531.262 curveto
stroke
[] 0 setdash
0.6588 0 0.2118 setrgbcolor
newpath
391.173 364.115 moveto
-4.4501 8.7862 rlineto
4.1972 -3.7926 rlineto
3.7926 4.1972 rlineto
-3.5397 -9.1908 rlineto
391.173 364.115 lineto
closepath eofill
1.0 setlinewidth
0.6588 0 0.2118 setrgbcolor
newpath
391.173 364.115 moveto
-4.4501 8.7862 rlineto
4.1972 -3.7926 rlineto
3.7926 4.1972 rlineto
-3.5397 -9.1908 rlineto
391.173 364.115 lineto
closepath stroke
0 setlinewidth
[] 0 setdash
0 0 0 setrgbcolor
newpath
392.6094 422.7544 moveto
P$2r
395.5469 418.2856 moveto
P$1i
405.25 418.6606 moveto
P$2s
413.8125 421.7231 moveto
P$2t
412.6406 421.3794 moveto
P$2u
420.25 418.6606 moveto
P$2s
fill
1.0 setlinewidth
0.6588 0 0.2118 setrgbcolor
newpath
356.35 589.985 moveto
344.064 604.637 328.314 621.149 311.5 633 curveto
299.725 641.299 270.78 653.647 243.599 664.336 curveto
stroke
0.6588 0 0.2118 setrgbcolor
newpath
231.303 669.111 moveto
9.8375 0.472 rlineto
-5.1764 -2.2814 rlineto
2.2814 -5.1764 rlineto
-6.9425 6.9858 rlineto
231.303 669.111 lineto
closepath eofill
1.0 setlinewidth
0.6588 0 0.2118 setrgbcolor
newpath
231.303 669.111 moveto
9.8375 0.472 rlineto
-5.1764 -2.2814 rlineto
2.2814 -5.1764 rlineto
-6.9425 6.9858 rlineto
231.303 669.111 lineto
closepath stroke
1.0 setlinewidth
0.6588 0 0.2118 setrgbcolor
newpath
235.9641 667.3016 moveto
7.4574 -2.8961 rlineto
stroke
0.6588 0 0.2118 setrgbcolor
newpath
364.65 579.738 moveto
-6.8849 2.1444 rlineto
-0.6686 7.18 rlineto
6.8849 -2.1444 rlineto
0.6686 -7.18 rlineto
364.65 579.738 lineto
closepath eofill
1.0 setlinewidth
0.6588 0 0.2118 setrgbcolor
newpath
364.65 579.738 moveto
-6.8849 2.1444 rlineto
-0.6686 7.18 rlineto
6.8849 -2.1444 rlineto
0.6686 -7.18 rlineto
364.65 579.738 lineto
closepath stroke
0 setlinewidth
[] 0 setdash
0 0 0 setrgbcolor
newpath
240.5385 661.2222 moveto
P$2q
fill
1.0 setlinewidth
0.6588 0 0.2118 setrgbcolor
newpath
344.159 587.91 moveto
323.616 603.671 296.976 621.753 270.5 633 curveto
208.727 659.242 187.267 645.4 122.5 663 curveto
120.898 663.435 119.278 663.889 117.648 664.357 curveto
stroke
0.6588 0 0.2118 setrgbcolor
newpath
105.035 668.188 moveto
9.7741 1.2113 rlineto
-4.99 -2.6646 rlineto
2.6646 -4.99 rlineto
-7.4488 6.4433 rlineto
105.035 668.188 lineto
closepath eofill
1.0 setlinewidth
0.6588 0 0.2118 setrgbcolor
newpath
105.035 668.188 moveto
9.7741 1.2113 rlineto
-4.99 -2.6646 rlineto
2.6646 -4.99 rlineto
-7.4488 6.4433 rlineto
105.035 668.188 lineto
closepath stroke
1.0 setlinewidth
0.6588 0 0.2118 setrgbcolor
newpath
109.8191 666.7347 moveto
7.6544 -2.3252 rlineto
stroke
0.6588 0 0.2118 setrgbcolor
newpath
354.608 579.691 moveto
-7.1889 0.5659 rlineto
-2.2426 6.8535 rlineto
7.1889 -0.5659 rlineto
2.2426 -6.8535 rlineto
354.608 579.691 lineto
closepath eofill
1.0 setlinewidth
0.6588 0 0.2118 setrgbcolor
newpath
354.608 579.691 moveto
-7.1889 0.5659 rlineto
-2.2426 6.8535 rlineto
7.1889 -0.5659 rlineto
2.2426 -6.8535 rlineto
354.608 579.691 lineto
closepath stroke
0 setlinewidth
[] 0 setdash
0 0 0 setrgbcolor
newpath
114.5073 660.3219 moveto
P$2q
fill
1.0 setlinewidth
0.6588 0 0.2118 setrgbcolor
newpath
369.324 592.005 moveto
364.508 605.076 358.654 619.884 352.5 633 curveto
349.7 638.967 346.485 645.172 343.222 651.143 curveto
stroke
0.6588 0 0.2118 setrgbcolor
newpath
336.577 662.924 moveto
7.9058 -5.8736 rlineto
-5.4492 1.5187 rlineto
-1.5187 -5.4492 rlineto
-0.9379 9.8041 rlineto
336.577 662.924 lineto
closepath eofill
1.0 setlinewidth
0.6588 0 0.2118 setrgbcolor
newpath
336.577 662.924 moveto
7.9058 -5.8736 rlineto
-5.4492 1.5187 rlineto
-1.5187 -5.4492 rlineto
-0.9379 9.8041 rlineto
336.577 662.924 lineto
closepath stroke
1.0 setlinewidth
0.6588 0 0.2118 setrgbcolor
newpath
339.0336 658.5691 moveto
3.9304 -6.9676 rlineto
stroke
0.6588 0 0.2118 setrgbcolor
newpath
373.766 579.641 moveto
-5.7932 4.2941 rlineto
1.7356 6.9991 rlineto
5.7932 -4.2941 rlineto
-1.7356 -6.9991 rlineto
373.766 579.641 lineto
closepath eofill
1.0 setlinewidth
0.6588 0 0.2118 setrgbcolor
newpath
373.766 579.641 moveto
-5.7932 4.2941 rlineto
1.7356 6.9991 rlineto
5.7932 -4.2941 rlineto
-1.7356 -6.9991 rlineto
373.766 579.641 lineto
closepath stroke
0 setlinewidth
[] 0 setdash
0 0 0 setrgbcolor
newpath
332.7686 650.8384 moveto
P$2q
fill
1.0 setlinewidth
0.6588 0 0.2118 setrgbcolor
newpath
422.487 586.49 moveto
434.145 595.573 446.622 605.844 457.5 616 curveto
469.609 627.305 482.001 640.627 492.556 652.598 curveto
stroke
0.6588 0 0.2118 setrgbcolor
newpath
501.305 662.685 moveto
-2.8752 -9.4198 rlineto
-0.4009 5.6426 rlineto
-5.6426 -0.4009 rlineto
8.9187 4.1781 rlineto
501.305 662.685 lineto
closepath eofill
1.0 setlinewidth
0.6588 0 0.2118 setrgbcolor
newpath
501.305 662.685 moveto
-2.8752 -9.4198 rlineto
-0.4009 5.6426 rlineto
-5.6426 -0.4009 rlineto
8.9187 4.1781 rlineto
501.305 662.685 lineto
closepath stroke
1.0 setlinewidth
0.6588 0 0.2118 setrgbcolor
newpath
498.0289 658.9078 moveto
-5.2419 -6.0438 rlineto
stroke
0.6588 0 0.2118 setrgbcolor
newpath
412.08 578.519 moveto
2.3305 6.8241 rlineto
7.1955 0.4734 rlineto
-2.3305 -6.8241 rlineto
-7.1955 -0.4734 rlineto
412.08 578.519 lineto
closepath eofill
1.0 setlinewidth
0.6588 0 0.2118 setrgbcolor
newpath
412.08 578.519 moveto
2.3305 6.8241 rlineto
7.1955 0.4734 rlineto
-2.3305 -6.8241 rlineto
-7.1955 -0.4734 rlineto
412.08 578.519 lineto
closepath stroke
0 setlinewidth
[] 0 setdash
0 0 0 setrgbcolor
newpath
489.2606 650.935 moveto
P$2q
fill
1.0 setlinewidth
0.6588 0 0.2118 setrgbcolor
[9 9] 0 setdash
newpath
211.269 711.135 moveto
234.518 732.009 268.703 762.7003 293.03 784.5418 curveto
stroke
[] 0 setdash
0.6588 0 0.2118 setrgbcolor
newpath
296.847 787.9684 moveto
-4.0252 -8.9888 rlineto
0.3045 5.6487 rlineto
-5.6487 0.3045 rlineto
9.3694 3.0356 rlineto
296.847 787.9684 lineto
closepath eofill
1.0 setlinewidth
0.6588 0 0.2118 setrgbcolor
newpath
296.847 787.9684 moveto
-4.0252 -8.9888 rlineto
0.3045 5.6487 rlineto
-5.6487 0.3045 rlineto
9.3694 3.0356 rlineto
296.847 787.9684 lineto
closepath stroke
0 setlinewidth
[] 0 setdash
0 0 0 setrgbcolor
newpath
264.6094 751.2544 moveto
P$2r
267.5469 746.7856 moveto
P$1i
277.25 747.1606 moveto
P$2s
285.8125 750.2231 moveto
P$2t
284.6406 749.8794 moveto
P$2u
292.25 747.1606 moveto
P$2s
fill
1.0 setlinewidth
0.6588 0 0.2118 setrgbcolor
[9 9] 0 setdash
newpath
322.5 711.135 moveto
322.5 731.494 322.5 761.1907 322.5 782.908 curveto
stroke
[] 0 setdash
0.6588 0 0.2118 setrgbcolor
newpath
322.5 787.9684 moveto
4 -9 rlineto
-4 4 rlineto
-4 -4 rlineto
4 9 rlineto
322.5 787.9684 lineto
closepath eofill
1.0 setlinewidth
0.6588 0 0.2118 setrgbcolor
newpath
322.5 787.9684 moveto
4 -9 rlineto
-4 4 rlineto
-4 -4 rlineto
4 9 rlineto
322.5 787.9684 lineto
closepath stroke
0 setlinewidth
[] 0 setdash
0 0 0 setrgbcolor
newpath
324.6094 751.2544 moveto
P$2r
327.5469 746.7856 moveto
P$1i
337.25 747.1606 moveto
P$2s
345.8125 750.2231 moveto
P$2t
344.6406 749.8794 moveto
P$2u
352.25 747.1606 moveto
P$2s
fill
1.0 setlinewidth
0.6588 0 0.2118 setrgbcolor
[9 9] 0 setdash
newpath
555.986 369.353 moveto
548.253 438.354 529.909 602.042 523.102 662.785 curveto
stroke
[] 0 setdash
0.6588 0 0.2118 setrgbcolor
newpath
556.569 364.157 moveto
-4.9756 8.4996 rlineto
4.4198 -3.5306 rlineto
3.5306 4.4198 rlineto
-2.9748 -9.3888 rlineto
556.569 364.157 lineto
closepath eofill
1.0 setlinewidth
0.6588 0 0.2118 setrgbcolor
newpath
556.569 364.157 moveto
-4.9756 8.4996 rlineto
4.4198 -3.5306 rlineto
3.5306 4.4198 rlineto
-2.9748 -9.3888 rlineto
556.569 364.157 lineto
closepath stroke
0 setlinewidth
[] 0 setdash
0 0 0 setrgbcolor
newpath
546.6094 488.2544 moveto
P$2r
549.5469 483.7856 moveto
P$1i
559.25 484.1606 moveto
P$2s
567.8125 487.2231 moveto
P$2t
566.6406 486.8794 moveto
P$2u
574.25 484.1606 moveto
P$2s
fill
1.0 setlinewidth
0.6588 0 0.2118 setrgbcolor
newpath
424.188 573.051 moveto
481.263 595.18 582.988 634.622 649.851 660.546 curveto
stroke
0.6588 0 0.2118 setrgbcolor
newpath
662.324 665.382 moveto
-6.9452 -6.9831 rlineto
2.2834 5.1755 rlineto
-5.1755 2.2834 rlineto
9.8374 -0.4758 rlineto
662.324 665.382 lineto
closepath eofill
1.0 setlinewidth
0.6588 0 0.2118 setrgbcolor
newpath
662.324 665.382 moveto
-6.9452 -6.9831 rlineto
2.2834 5.1755 rlineto
-5.1755 2.2834 rlineto
9.8374 -0.4758 rlineto
662.324 665.382 lineto
closepath stroke
1.0 setlinewidth
0.6588 0 0.2118 setrgbcolor
newpath
657.6622 663.5744 moveto
-7.4592 -2.8919 rlineto
stroke
0.6588 0 0.2118 setrgbcolor
newpath
412.026 568.336 moveto
4.1485 5.8983 rlineto
7.0402 -1.5608 rlineto
-4.1485 -5.8983 rlineto
-7.0402 1.5608 rlineto
412.026 568.336 lineto
closepath eofill
1.0 setlinewidth
0.6588 0 0.2118 setrgbcolor
newpath
412.026 568.336 moveto
4.1485 5.8983 rlineto
7.0402 -1.5608 rlineto
-4.1485 -5.8983 rlineto
-7.0402 1.5608 rlineto
412.026 568.336 lineto
closepath stroke
0 setlinewidth
[] 0 setdash
0 0 0 setrgbcolor
newpath
648.2503 657.467 moveto
P$2q
fill
1.0 setlinewidth
0.6588 0 0.2118 setrgbcolor
[9 9] 0 setdash
newpath
593.111 687 moveto
614.274 687 637.113 687 657.265 687 curveto
stroke
[] 0 setdash
0.6588 0 0.2118 setrgbcolor
newpath
662.328 687 moveto
-9 -4 rlineto
4 4 rlineto
-4 4 rlineto
9 -4 rlineto
662.328 687 lineto
closepath eofill
1.0 setlinewidth
0.6588 0 0.2118 setrgbcolor
newpath
662.328 687 moveto
-9 -4 rlineto
4 4 rlineto
-4 4 rlineto
9 -4 rlineto
662.328 687 lineto
closepath stroke
0 setlinewidth
[] 0 setdash
0 0 0 setrgbcolor
newpath
613.8594 677.2544 moveto
P$2r
616.7969 672.7856 moveto
P$1i
626.5 673.1606 moveto
P$2s
635.0625 676.2231 moveto
P$2t
633.8906 675.8794 moveto
P$2u
641.5 673.1606 moveto
P$2s
fill
1.0 setlinewidth
0.6588 0 0.2118 setrgbcolor
[9 9] 0 setdash
newpath
383.805 687 moveto
404.07 687 426.812 687 447.844 687 curveto
stroke
[] 0 setdash
0.6588 0 0.2118 setrgbcolor
newpath
378.709 687 moveto
9 4 rlineto
-4 -4 rlineto
4 -4 rlineto
-9 4 rlineto
378.709 687 lineto
closepath eofill
1.0 setlinewidth
0.6588 0 0.2118 setrgbcolor
newpath
378.709 687 moveto
9 4 rlineto
-4 -4 rlineto
4 -4 rlineto
-9 4 rlineto
378.709 687 lineto
closepath stroke
0 setlinewidth
[] 0 setdash
0 0 0 setrgbcolor
newpath
399.3594 677.2544 moveto
P$2r
402.2969 672.7856 moveto
P$1i
412 673.1606 moveto
P$2s
420.5625 676.2231 moveto
P$2t
419.3906 675.8794 moveto
P$2u
427 673.1606 moveto
P$2s
fill
1.0 setlinewidth
0.6588 0 0.2118 setrgbcolor
[9 9] 0 setdash
newpath
227.616 445.08 moveto
221.172 461.824 212.219 485.084 204.224 505.855 curveto
stroke
[] 0 setdash
1.0 setlinewidth
0.6588 0 0.2118 setrgbcolor
newpath
210.682 508.562 moveto
-13.717 16.151 rlineto
0.652 -21.18 rlineto
13.065 5.029 rlineto
210.682 508.562 lineto
closepath stroke
0 setlinewidth
[] 0 setdash
0 0 0 setrgbcolor
newpath
216.7188 483.9575 moveto
P$2z
216.7188 481.1919 moveto
P$30
224.25 484.1606 moveto
P$2s
233.9531 487.4888 moveto
P$31
236.2813 487.0044 moveto
P$32
fill
1.0 setlinewidth
0.6588 0 0.2118 setrgbcolor
[9 9] 0 setdash
newpath
301.879 555.5 moveto
319.839 555.5 336.944 555.5 350.664 555.5 curveto
stroke
[] 0 setdash
1.0 setlinewidth
0.6588 0 0.2118 setrgbcolor
newpath
301.777 562.5 moveto
-20 -7 rlineto
20 -7 rlineto
0 14 rlineto
301.777 562.5 lineto
closepath stroke
0 setlinewidth
[] 0 setdash
0 0 0 setrgbcolor
newpath
306.4688 541.4575 moveto
P$2z
306.4688 538.6919 moveto
P$30
314 541.6606 moveto
P$2s
323.7031 544.9888 moveto
P$31
326.0313 544.5044 moveto
P$32
fill
1.0 setlinewidth
0.6588 0 0.2118 setrgbcolor
[9 9] 0 setdash
newpath
181.771 662.846 moveto
180.457 653.591 179.145 642.817 178.5 633 curveto
177.937 624.437 178.099 615.346 178.658 606.533 curveto
stroke
[] 0 setdash
1.0 setlinewidth
0.6588 0 0.2118 setrgbcolor
newpath
171.724 605.504 moveto
8.875 -19.241 rlineto
5.061 20.576 rlineto
-13.936 -1.335 rlineto
171.724 605.504 lineto
closepath stroke
0 setlinewidth
[] 0 setdash
0 0 0 setrgbcolor
newpath
180.7188 621.9575 moveto
P$2z
180.7188 619.1919 moveto
P$30
188.25 622.1606 moveto
P$2s
197.9531 625.4888 moveto
P$31
200.2813 625.0044 moveto
P$32
fill
1.0 setlinewidth
0.6588 0 0.2118 setrgbcolor
[9 9] 0 setdash
newpath
78.7086 662.881 moveto
96.0901 645.566 120.393 621.356 141.425 600.405 curveto
stroke
[] 0 setdash
1.0 setlinewidth
0.6588 0 0.2118 setrgbcolor
newpath
136.566 595.366 moveto
19.109 -9.156 rlineto
-9.229 19.074 rlineto
-9.88 -9.918 rlineto
136.566 595.366 lineto
closepath stroke
0 setlinewidth
[] 0 setdash
0 0 0 setrgbcolor
newpath
126.7188 621.9575 moveto
P$2z
126.7188 619.1919 moveto
P$30
134.25 622.1606 moveto
P$2s
143.9531 625.4888 moveto
P$31
146.2813 625.0044 moveto
P$32
fill
1.0 setlinewidth
0.6588 0 0.2118 setrgbcolor
[9 9] 0 setdash
newpath
298.042 662.881 moveto
279.636 645.482 253.865 621.122 231.627 600.102 curveto
stroke
[] 0 setdash
1.0 setlinewidth
0.6588 0 0.2118 setrgbcolor
newpath
226.656 605.036 moveto
-9.725 -18.826 rlineto
19.343 8.652 rlineto
-9.618 10.174 rlineto
226.656 605.036 lineto
closepath stroke
0 setlinewidth
[] 0 setdash
0 0 0 setrgbcolor
newpath
268.7188 621.9575 moveto
P$2z
268.7188 619.1919 moveto
P$30
276.25 622.1606 moveto
P$2s
285.9531 625.4888 moveto
P$31
288.2813 625.0044 moveto
P$32
fill
1.0 setlinewidth
0.6588 0 0.2118 setrgbcolor
[9 9] 0 setdash
newpath
460.809 662.925 moveto
410.817 643.6 338.546 615.662 280.594 593.26 curveto
stroke
[] 0 setdash
1.0 setlinewidth
0.6588 0 0.2118 setrgbcolor
newpath
278.067 599.788 moveto
-16.131 -13.74 rlineto
21.179 0.682 rlineto
-5.048 13.058 rlineto
278.067 599.788 lineto
closepath stroke
0 setlinewidth
[] 0 setdash
0 0 0 setrgbcolor
newpath
385.7188 621.9575 moveto
P$2z
385.7188 619.1919 moveto
P$30
393.25 622.1606 moveto
P$2s
402.9531 625.4888 moveto
P$31
405.2813 625.0044 moveto
P$32
fill
grestore
showpage
%plantuml done
%%EOF
